<?xml version="1.0" encoding="UTF-8" standalone="no"?>
<svg
   xmlns:dc="http://purl.org/dc/elements/1.1/"
   xmlns:cc="http://creativecommons.org/ns#"
   xmlns:rdf="http://www.w3.org/1999/02/22-rdf-syntax-ns#"
   xmlns:svg="http://www.w3.org/2000/svg"
   xmlns="http://www.w3.org/2000/svg"
   xmlns:sodipodi="http://sodipodi.sourceforge.net/DTD/sodipodi-0.dtd"
   xmlns:inkscape="http://www.inkscape.org/namespaces/inkscape"
   width="2560"
   height="1440"
   viewBox="0 0 67733.332 38099.999"
   version="1.1"
   xml:space="preserve"
   id="svg780"
   sodipodi:docname="LiteraryOutputUS.svg"
   style="stroke-width:28.22200012;stroke-linejoin:round"
   inkscape:export-filename="/home/anonymous/Documents/CopyCat/IntellectualPropertyArticle/sources/LiteraryOutputUS.png"
   inkscape:export-xdpi="96"
   inkscape:export-ydpi="96"
   inkscape:version="1.0.2 (1.0.2+r75+1)"><metadata
   id="metadata786"><rdf:RDF><cc:Work
       rdf:about=""><dc:format>image/svg+xml</dc:format><dc:type
         rdf:resource="http://purl.org/dc/dcmitype/StillImage" /><dc:title /></cc:Work></rdf:RDF></metadata><defs
   id="defs784"><inkscape:path-effect
     effect="spiro"
     id="path-effect2070"
     is_visible="true" /></defs><sodipodi:namedview
   pagecolor="#ffffff"
   bordercolor="#666666"
   borderopacity="1"
   objecttolerance="10"
   gridtolerance="10"
   guidetolerance="10"
   inkscape:pageopacity="0"
   inkscape:pageshadow="2"
   inkscape:window-width="1276"
   inkscape:window-height="1401"
   id="namedview782"
   showgrid="false"
   units="px"
   inkscape:zoom="0.50000001"
   inkscape:cx="1392.7027"
   inkscape:cy="958.9358"
   inkscape:window-x="1280"
   inkscape:window-y="18"
   inkscape:window-maximized="0"
   inkscape:current-layer="svg780"
   inkscape:snap-global="true"
   inkscape:snap-bbox="true"
   inkscape:bbox-paths="true"
   inkscape:bbox-nodes="true"
   inkscape:snap-bbox-edge-midpoints="true"
   inkscape:snap-bbox-midpoints="true"
   inkscape:snap-page="true"
   inkscape:document-rotation="0" />
 
 <rect
   style="fill:#ffffff;fill-opacity:1;stroke-width:43.6562;stroke-linecap:round;stroke-linejoin:round;paint-order:markers stroke fill"
   id="rect1223"
   width="55960.988"
   height="38100"
   x="5886.1719"
   y="0"
   rx="1322.9166"
   ry="1322.9166" /><rect
   style="display:none;opacity:1;fill:#1c0000;fill-opacity:1;stroke:none;stroke-width:462.80358887;stroke-linecap:round;stroke-linejoin:round;stroke-miterlimit:4;stroke-dasharray:none;stroke-dashoffset:0;stroke-opacity:1;paint-order:normal"
   id="rect1204"
   width="67733.328"
   height="38100"
   x="6.501466e-13"
   y="4.0927262e-12"
   sodipodi:insensitive="true" />
 
 
 
 
 
 
 
 
 
 
 
 
 
 
 
 
 
 
 
 
 
 
 
 
 
 
 
 
 
 
 
 
 
 
 
 
 
 
 
 
 
 
 
 
 
 
 
 
 
 
 
 
 
 
 
 
 
 
 
 
 
 
 
 
 
 
 
 
 
 
 
 
 
 
 
 
 
 
 
 
 
 
 
 
 
 
 
 
 
 
 
 
 
 
 
 
 
 
 
 
 
 
 
 
 
 
 
 
 
 
 
 
 
 
 
 
 
 
 
 
 
 
 
 
 
 
 
 
 
 
 
 
 
 
 
 
 
 
 
 
 
 
 
 
 
 
 
 
 
 
 
 
 
 
 
 
 
 
 
 
 
 
 
 
 
 
 
 
 
 
 
 
 
 
 
 
 
 
 
 
 
 
 
 
 
 
 
 
 
 
 
 
 
 
 
 
 
 
 
 
 
 
 
 
 
 
 
 
 
 
 
 
 
 
 
 
 
 
 
 
 
 
 
 
 
 
 
 
 
 
 
 
 
 
 
 
 
 
 
 
 
 
 
 
 
 
 
 
 
 
 
 
 
 
 
 
 
 
 
 
 
 
 
 
 
 
 
 
 
 
 
 
 
 
 
 
 
 
 
 
 
 
 
 
 
 
 
 


 


 


 


 


 


 


 


 


 


 


 


 


 


 


 


 


 


 


 


















 


 
 
 
 


 <g
   inkscape:label="messpunkte"
   id="g1831"
   style="display:none;fill:#ffffff;fill-opacity:1"
   transform="matrix(2.0101525,0,0,2.0101525,7510.7492,1556.5052)"><path
     style="fill:#ffffff;fill-opacity:1;stroke:#ffffff;stroke-opacity:1"
     id="path108"
     d="m 5392,6513 v 250 h 250 v -250 z"
     inkscape:connector-curvature="0" /><path
     style="fill:#ffffff;fill-opacity:1;stroke:#ffffff;stroke-linejoin:round;stroke-opacity:1"
     id="path110"
     d="m 5392,6513 v 250 h 250 v -250 z"
     inkscape:connector-curvature="0" /><path
     style="fill:#ffffff;fill-opacity:1;stroke:#ffffff;stroke-opacity:1"
     id="path112"
     d="m 5526,6887 v 250 h 250 v -250 z"
     inkscape:connector-curvature="0" /><path
     style="fill:#ffffff;fill-opacity:1;stroke:#ffffff;stroke-linejoin:round;stroke-opacity:1"
     id="path114"
     d="m 5526,6887 v 250 h 250 v -250 z"
     inkscape:connector-curvature="0" /><path
     style="fill:#ffffff;fill-opacity:1;stroke:#ffffff;stroke-opacity:1"
     id="path116"
     d="m 5660,7002 v 250 h 250 v -250 z"
     inkscape:connector-curvature="0" /><path
     style="fill:#ffffff;fill-opacity:1;stroke:#ffffff;stroke-linejoin:round;stroke-opacity:1"
     id="path118"
     d="m 5660,7002 v 250 h 250 v -250 z"
     inkscape:connector-curvature="0" /><path
     style="fill:#ffffff;fill-opacity:1;stroke:#ffffff;stroke-opacity:1"
     id="path120"
     d="m 5794,6700 v 250 h 250 v -250 z"
     inkscape:connector-curvature="0" /><path
     style="fill:#ffffff;fill-opacity:1;stroke:#ffffff;stroke-linejoin:round;stroke-opacity:1"
     id="path122"
     d="m 5794,6700 v 250 h 250 v -250 z"
     inkscape:connector-curvature="0" /><path
     style="fill:#ffffff;fill-opacity:1;stroke:#ffffff;stroke-opacity:1"
     id="path124"
     d="m 5927,6410 v 250 h 250 v -250 z"
     inkscape:connector-curvature="0" /><path
     style="fill:#ffffff;fill-opacity:1;stroke:#ffffff;stroke-linejoin:round;stroke-opacity:1"
     id="path126"
     d="m 5927,6410 v 250 h 250 v -250 z"
     inkscape:connector-curvature="0" /><path
     style="fill:#ffffff;fill-opacity:1;stroke:#ffffff;stroke-opacity:1"
     id="path128"
     d="m 6061,5724 v 250 h 250 v -250 z"
     inkscape:connector-curvature="0" /><path
     style="fill:#ffffff;fill-opacity:1;stroke:#ffffff;stroke-linejoin:round;stroke-opacity:1"
     id="path130"
     d="m 6061,5724 v 250 h 250 v -250 z"
     inkscape:connector-curvature="0" /><path
     style="fill:#ffffff;fill-opacity:1;stroke:#ffffff;stroke-opacity:1"
     id="path132"
     d="m 6195,5575 v 250 h 250 v -250 z"
     inkscape:connector-curvature="0" /><path
     style="fill:#ffffff;fill-opacity:1;stroke:#ffffff;stroke-linejoin:round;stroke-opacity:1"
     id="path134"
     d="m 6195,5575 v 250 h 250 v -250 z"
     inkscape:connector-curvature="0" /><path
     style="fill:#ffffff;fill-opacity:1;stroke:#ffffff;stroke-opacity:1"
     id="path136"
     d="m 6329,5266 v 250 h 250 v -250 z"
     inkscape:connector-curvature="0" /><path
     style="fill:#ffffff;fill-opacity:1;stroke:#ffffff;stroke-linejoin:round;stroke-opacity:1"
     id="path138"
     d="m 6329,5266 v 250 h 250 v -250 z"
     inkscape:connector-curvature="0" /><path
     style="fill:#ffffff;fill-opacity:1;stroke:#ffffff;stroke-opacity:1"
     id="path140"
     d="m 6463,5786 v 250 h 250 v -250 z"
     inkscape:connector-curvature="0" /><path
     style="fill:#ffffff;fill-opacity:1;stroke:#ffffff;stroke-linejoin:round;stroke-opacity:1"
     id="path142"
     d="m 6463,5786 v 250 h 250 v -250 z"
     inkscape:connector-curvature="0" /><path
     style="fill:#ffffff;fill-opacity:1;stroke:#ffffff;stroke-opacity:1"
     id="path144"
     d="m 6596,5936 v 250 h 250 v -250 z"
     inkscape:connector-curvature="0" /><path
     style="fill:#ffffff;fill-opacity:1;stroke:#ffffff;stroke-linejoin:round;stroke-opacity:1"
     id="path146"
     d="m 6596,5936 v 250 h 250 v -250 z"
     inkscape:connector-curvature="0" /><path
     style="fill:#ffffff;fill-opacity:1;stroke:#ffffff;stroke-opacity:1"
     id="path148"
     d="m 6730,7067 v 250 h 250 v -250 z"
     inkscape:connector-curvature="0" /><path
     style="fill:#ffffff;fill-opacity:1;stroke:#ffffff;stroke-linejoin:round;stroke-opacity:1"
     id="path150"
     d="m 6730,7067 v 250 h 250 v -250 z"
     inkscape:connector-curvature="0" /><path
     style="fill:#ffffff;fill-opacity:1;stroke:#ffffff;stroke-opacity:1"
     id="path152"
     d="m 6864,6746 v 250 h 250 v -250 z"
     inkscape:connector-curvature="0" /><path
     style="fill:#ffffff;fill-opacity:1;stroke:#ffffff;stroke-linejoin:round;stroke-opacity:1"
     id="path154"
     d="m 6864,6746 v 250 h 250 v -250 z"
     inkscape:connector-curvature="0" /><path
     style="fill:#ffffff;fill-opacity:1;stroke:#ffffff;stroke-opacity:1"
     id="path156"
     d="m 6998,6498 v 250 h 250 v -250 z"
     inkscape:connector-curvature="0" /><path
     style="fill:#ffffff;fill-opacity:1;stroke:#ffffff;stroke-linejoin:round;stroke-opacity:1"
     id="path158"
     d="m 6998,6498 v 250 h 250 v -250 z"
     inkscape:connector-curvature="0" /><path
     style="fill:#ffffff;fill-opacity:1;stroke:#ffffff;stroke-opacity:1"
     id="path160"
     d="m 7131,6813 v 250 h 250 v -250 z"
     inkscape:connector-curvature="0" /><path
     style="fill:#ffffff;fill-opacity:1;stroke:#ffffff;stroke-linejoin:round;stroke-opacity:1"
     id="path162"
     d="m 7131,6813 v 250 h 250 v -250 z"
     inkscape:connector-curvature="0" /><path
     style="fill:#ffffff;fill-opacity:1;stroke:#ffffff;stroke-opacity:1"
     id="path164"
     d="m 7265,6757 v 250 h 250 v -250 z"
     inkscape:connector-curvature="0" /><path
     style="fill:#ffffff;fill-opacity:1;stroke:#ffffff;stroke-linejoin:round;stroke-opacity:1"
     id="path166"
     d="m 7265,6757 v 250 h 250 v -250 z"
     inkscape:connector-curvature="0" /><path
     style="fill:#ffffff;fill-opacity:1;stroke:#ffffff;stroke-opacity:1"
     id="path168"
     d="m 7399,7458 v 250 h 250 v -250 z"
     inkscape:connector-curvature="0" /><path
     style="fill:#ffffff;fill-opacity:1;stroke:#ffffff;stroke-linejoin:round;stroke-opacity:1"
     id="path170"
     d="m 7399,7458 v 250 h 250 v -250 z"
     inkscape:connector-curvature="0" /><path
     style="fill:#ffffff;fill-opacity:1;stroke:#ffffff;stroke-opacity:1"
     id="path172"
     d="m 7533,7546 v 250 h 250 v -250 z"
     inkscape:connector-curvature="0" /><path
     style="fill:#ffffff;fill-opacity:1;stroke:#ffffff;stroke-linejoin:round;stroke-opacity:1"
     id="path174"
     d="m 7533,7546 v 250 h 250 v -250 z"
     inkscape:connector-curvature="0" /><path
     style="fill:#ffffff;fill-opacity:1;stroke:#ffffff;stroke-opacity:1"
     id="path176"
     d="m 7667,7986 v 250 h 250 v -250 z"
     inkscape:connector-curvature="0" /><path
     style="fill:#ffffff;fill-opacity:1;stroke:#ffffff;stroke-linejoin:round;stroke-opacity:1"
     id="path178"
     d="m 7667,7986 v 250 h 250 v -250 z"
     inkscape:connector-curvature="0" /><path
     style="fill:#ffffff;fill-opacity:1;stroke:#ffffff;stroke-opacity:1"
     id="path180"
     d="m 7800,8352 v 250 h 250 v -250 z"
     inkscape:connector-curvature="0" /><path
     style="fill:#ffffff;fill-opacity:1;stroke:#ffffff;stroke-linejoin:round;stroke-opacity:1"
     id="path182"
     d="m 7800,8352 v 250 h 250 v -250 z"
     inkscape:connector-curvature="0" /><path
     style="fill:#ffffff;fill-opacity:1;stroke:#ffffff;stroke-opacity:1"
     id="path184"
     d="m 7934,8073 v 250 h 250 v -250 z"
     inkscape:connector-curvature="0" /><path
     style="fill:#ffffff;fill-opacity:1;stroke:#ffffff;stroke-linejoin:round;stroke-opacity:1"
     id="path186"
     d="m 7934,8073 v 250 h 250 v -250 z"
     inkscape:connector-curvature="0" /><path
     style="fill:#ffffff;fill-opacity:1;stroke:#ffffff;stroke-opacity:1"
     id="path188"
     d="m 8068,7402 v 250 h 250 v -250 z"
     inkscape:connector-curvature="0" /><path
     style="fill:#ffffff;fill-opacity:1;stroke:#ffffff;stroke-linejoin:round;stroke-opacity:1"
     id="path190"
     d="m 8068,7402 v 250 h 250 v -250 z"
     inkscape:connector-curvature="0" /><path
     style="fill:#ffffff;fill-opacity:1;stroke:#ffffff;stroke-opacity:1"
     id="path192"
     d="m 8202,7026 v 250 h 250 v -250 z"
     inkscape:connector-curvature="0" /><path
     style="fill:#ffffff;fill-opacity:1;stroke:#ffffff;stroke-linejoin:round;stroke-opacity:1"
     id="path194"
     d="m 8202,7026 v 250 h 250 v -250 z"
     inkscape:connector-curvature="0" /><path
     style="fill:#ffffff;fill-opacity:1;stroke:#ffffff;stroke-opacity:1"
     id="path196"
     d="m 8336,6948 v 250 h 250 v -250 z"
     inkscape:connector-curvature="0" /><path
     style="fill:#ffffff;fill-opacity:1;stroke:#ffffff;stroke-linejoin:round;stroke-opacity:1"
     id="path198"
     d="m 8336,6948 v 250 h 250 v -250 z"
     inkscape:connector-curvature="0" /><path
     style="fill:#ffffff;fill-opacity:1;stroke:#ffffff;stroke-opacity:1"
     id="path200"
     d="m 8469,6535 v 250 h 250 v -250 z"
     inkscape:connector-curvature="0" /><path
     style="fill:#ffffff;fill-opacity:1;stroke:#ffffff;stroke-linejoin:round;stroke-opacity:1"
     id="path202"
     d="m 8469,6535 v 250 h 250 v -250 z"
     inkscape:connector-curvature="0" /><path
     style="fill:#ffffff;fill-opacity:1;stroke:#ffffff;stroke-opacity:1"
     id="path204"
     d="m 8603,5977 v 250 h 250 v -250 z"
     inkscape:connector-curvature="0" /><path
     style="fill:#ffffff;fill-opacity:1;stroke:#ffffff;stroke-linejoin:round;stroke-opacity:1"
     id="path206"
     d="m 8603,5977 v 250 h 250 v -250 z"
     inkscape:connector-curvature="0" /><path
     style="fill:#ffffff;fill-opacity:1;stroke:#ffffff;stroke-opacity:1"
     id="path208"
     d="m 8737,5992 v 250 h 250 v -250 z"
     inkscape:connector-curvature="0" /><path
     style="fill:#ffffff;fill-opacity:1;stroke:#ffffff;stroke-linejoin:round;stroke-opacity:1"
     id="path210"
     d="m 8737,5992 v 250 h 250 v -250 z"
     inkscape:connector-curvature="0" /><path
     style="fill:#ffffff;fill-opacity:1;stroke:#ffffff;stroke-opacity:1"
     id="path212"
     d="m 8871,5498 v 250 h 250 v -250 z"
     inkscape:connector-curvature="0" /><path
     style="fill:#ffffff;fill-opacity:1;stroke:#ffffff;stroke-linejoin:round;stroke-opacity:1"
     id="path214"
     d="m 8871,5498 v 250 h 250 v -250 z"
     inkscape:connector-curvature="0" /><path
     style="fill:#ffffff;fill-opacity:1;stroke:#ffffff;stroke-opacity:1"
     id="path216"
     d="m 9005,5331 v 250 h 250 v -250 z"
     inkscape:connector-curvature="0" /><path
     style="fill:#ffffff;fill-opacity:1;stroke:#ffffff;stroke-linejoin:round;stroke-opacity:1"
     id="path218"
     d="m 9005,5331 v 250 h 250 v -250 z"
     inkscape:connector-curvature="0" /><path
     style="fill:#ffffff;fill-opacity:1;stroke:#ffffff;stroke-opacity:1"
     id="path220"
     d="m 9138,4991 v 250 h 250 v -250 z"
     inkscape:connector-curvature="0" /><path
     style="fill:#ffffff;fill-opacity:1;stroke:#ffffff;stroke-linejoin:round;stroke-opacity:1"
     id="path222"
     d="m 9138,4991 v 250 h 250 v -250 z"
     inkscape:connector-curvature="0" /><path
     style="fill:#ffffff;fill-opacity:1;stroke:#ffffff;stroke-opacity:1"
     id="path224"
     d="m 9272,6807 v 250 h 250 v -250 z"
     inkscape:connector-curvature="0" /><path
     style="fill:#ffffff;fill-opacity:1;stroke:#ffffff;stroke-linejoin:round;stroke-opacity:1"
     id="path226"
     d="m 9272,6807 v 250 h 250 v -250 z"
     inkscape:connector-curvature="0" /><path
     style="fill:#ffffff;fill-opacity:1;stroke:#ffffff;stroke-opacity:1"
     id="path228"
     d="m 9406,6415 v 250 h 250 v -250 z"
     inkscape:connector-curvature="0" /><path
     style="fill:#ffffff;fill-opacity:1;stroke:#ffffff;stroke-linejoin:round;stroke-opacity:1"
     id="path230"
     d="m 9406,6415 v 250 h 250 v -250 z"
     inkscape:connector-curvature="0" /><path
     style="fill:#ffffff;fill-opacity:1;stroke:#ffffff;stroke-opacity:1"
     id="path232"
     d="m 9540,6935 v 250 h 250 v -250 z"
     inkscape:connector-curvature="0" /><path
     style="fill:#ffffff;fill-opacity:1;stroke:#ffffff;stroke-linejoin:round;stroke-opacity:1"
     id="path234"
     d="m 9540,6935 v 250 h 250 v -250 z"
     inkscape:connector-curvature="0" /><path
     style="fill:#ffffff;fill-opacity:1;stroke:#ffffff;stroke-opacity:1"
     id="path236"
     d="m 9673,7698 v 250 h 250 v -250 z"
     inkscape:connector-curvature="0" /><path
     style="fill:#ffffff;fill-opacity:1;stroke:#ffffff;stroke-linejoin:round;stroke-opacity:1"
     id="path238"
     d="m 9673,7698 v 250 h 250 v -250 z"
     inkscape:connector-curvature="0" /><path
     style="fill:#ffffff;fill-opacity:1;stroke:#ffffff;stroke-opacity:1"
     id="path240"
     d="m 9807,8487 v 249 h 250 v -249 z"
     inkscape:connector-curvature="0" /><path
     style="fill:#ffffff;fill-opacity:1;stroke:#ffffff;stroke-linejoin:round;stroke-opacity:1"
     id="path242"
     d="m 9807,8487 v 249 h 250 v -249 z"
     inkscape:connector-curvature="0" /><path
     style="fill:#ffffff;fill-opacity:1;stroke:#ffffff;stroke-opacity:1"
     id="path244"
     d="m 9941,8480 v 249 h 250 v -249 z"
     inkscape:connector-curvature="0" /><path
     style="fill:#ffffff;fill-opacity:1;stroke:#ffffff;stroke-linejoin:round;stroke-opacity:1"
     id="path246"
     d="m 9941,8480 v 249 h 250 v -249 z"
     inkscape:connector-curvature="0" /><path
     style="fill:#ffffff;fill-opacity:1;stroke:#ffffff;stroke-opacity:1"
     id="path248"
     d="m 10075,8413 v 250 h 250 v -250 z"
     inkscape:connector-curvature="0" /><path
     style="fill:#ffffff;fill-opacity:1;stroke:#ffffff;stroke-linejoin:round;stroke-opacity:1"
     id="path250"
     d="m 10075,8413 v 250 h 250 v -250 z"
     inkscape:connector-curvature="0" /><path
     style="fill:#ffffff;fill-opacity:1;stroke:#ffffff;stroke-opacity:1"
     id="path252"
     d="m 10209,7799 v 250 h 250 v -250 z"
     inkscape:connector-curvature="0" /><path
     style="fill:#ffffff;fill-opacity:1;stroke:#ffffff;stroke-linejoin:round;stroke-opacity:1"
     id="path254"
     d="m 10209,7799 v 250 h 250 v -250 z"
     inkscape:connector-curvature="0" /><path
     style="fill:#ffffff;fill-opacity:1;stroke:#ffffff;stroke-opacity:1"
     id="path256"
     d="m 10342,7996 v 250 h 250 v -250 z"
     inkscape:connector-curvature="0" /><path
     style="fill:#ffffff;fill-opacity:1;stroke:#ffffff;stroke-linejoin:round;stroke-opacity:1"
     id="path258"
     d="m 10342,7996 v 250 h 250 v -250 z"
     inkscape:connector-curvature="0" /><path
     style="fill:#ffffff;fill-opacity:1;stroke:#ffffff;stroke-opacity:1"
     id="path260"
     d="m 10476,7558 v 250 h 250 v -250 z"
     inkscape:connector-curvature="0" /><path
     style="fill:#ffffff;fill-opacity:1;stroke:#ffffff;stroke-linejoin:round;stroke-opacity:1"
     id="path262"
     d="m 10476,7558 v 250 h 250 v -250 z"
     inkscape:connector-curvature="0" /><path
     style="fill:#ffffff;fill-opacity:1;stroke:#ffffff;stroke-opacity:1"
     id="path264"
     d="m 10610,7360 v 250 h 250 v -250 z"
     inkscape:connector-curvature="0" /><path
     style="fill:#ffffff;fill-opacity:1;stroke:#ffffff;stroke-linejoin:round;stroke-opacity:1"
     id="path266"
     d="m 10610,7360 v 250 h 250 v -250 z"
     inkscape:connector-curvature="0" /><path
     style="fill:#ffffff;fill-opacity:1;stroke:#ffffff;stroke-opacity:1"
     id="path268"
     d="m 10744,7303 v 250 h 250 v -250 z"
     inkscape:connector-curvature="0" /><path
     style="fill:#ffffff;fill-opacity:1;stroke:#ffffff;stroke-linejoin:round;stroke-opacity:1"
     id="path270"
     d="m 10744,7303 v 250 h 250 v -250 z"
     inkscape:connector-curvature="0" /><path
     style="fill:#ffffff;fill-opacity:1;stroke:#ffffff;stroke-opacity:1"
     id="path272"
     d="m 10878,7376 v 250 h 250 v -250 z"
     inkscape:connector-curvature="0" /><path
     style="fill:#ffffff;fill-opacity:1;stroke:#ffffff;stroke-linejoin:round;stroke-opacity:1"
     id="path274"
     d="m 10878,7376 v 250 h 250 v -250 z"
     inkscape:connector-curvature="0" /><path
     style="fill:#ffffff;fill-opacity:1;stroke:#ffffff;stroke-opacity:1"
     id="path276"
     d="m 11011,7441 v 250 h 250 v -250 z"
     inkscape:connector-curvature="0" /><path
     style="fill:#ffffff;fill-opacity:1;stroke:#ffffff;stroke-linejoin:round;stroke-opacity:1"
     id="path278"
     d="m 11011,7441 v 250 h 250 v -250 z"
     inkscape:connector-curvature="0" /><path
     style="fill:#ffffff;fill-opacity:1;stroke:#ffffff;stroke-opacity:1"
     id="path280"
     d="m 11145,8502 v 249 h 250 v -249 z"
     inkscape:connector-curvature="0" /><path
     style="fill:#ffffff;fill-opacity:1;stroke:#ffffff;stroke-linejoin:round;stroke-opacity:1"
     id="path282"
     d="m 11145,8502 v 249 h 250 v -249 z"
     inkscape:connector-curvature="0" /><path
     style="fill:#ffffff;fill-opacity:1;stroke:#ffffff;stroke-opacity:1"
     id="path284"
     d="m 11279,8273 v 250 h 250 v -250 z"
     inkscape:connector-curvature="0" /><path
     style="fill:#ffffff;fill-opacity:1;stroke:#ffffff;stroke-linejoin:round;stroke-opacity:1"
     id="path286"
     d="m 11279,8273 v 250 h 250 v -250 z"
     inkscape:connector-curvature="0" /><path
     style="fill:#ffffff;fill-opacity:1;stroke:#ffffff;stroke-opacity:1"
     id="path288"
     d="m 11413,8003 v 250 h 250 v -250 z"
     inkscape:connector-curvature="0" /><path
     style="fill:#ffffff;fill-opacity:1;stroke:#ffffff;stroke-linejoin:round;stroke-opacity:1"
     id="path290"
     d="m 11413,8003 v 250 h 250 v -250 z"
     inkscape:connector-curvature="0" /><path
     style="fill:#ffffff;fill-opacity:1;stroke:#ffffff;stroke-opacity:1"
     id="path292"
     d="m 11546,7189 v 250 h 250 v -250 z"
     inkscape:connector-curvature="0" /><path
     style="fill:#ffffff;fill-opacity:1;stroke:#ffffff;stroke-linejoin:round;stroke-opacity:1"
     id="path294"
     d="m 11546,7189 v 250 h 250 v -250 z"
     inkscape:connector-curvature="0" /><path
     style="fill:#ffffff;fill-opacity:1;stroke:#ffffff;stroke-opacity:1"
     id="path296"
     d="m 11680,6297 v 250 h 250 v -250 z"
     inkscape:connector-curvature="0" /><path
     style="fill:#ffffff;fill-opacity:1;stroke:#ffffff;stroke-linejoin:round;stroke-opacity:1"
     id="path298"
     d="m 11680,6297 v 250 h 250 v -250 z"
     inkscape:connector-curvature="0" /><path
     style="fill:#ffffff;fill-opacity:1;stroke:#ffffff;stroke-opacity:1"
     id="path300"
     d="m 11814,6204 v 250 h 250 v -250 z"
     inkscape:connector-curvature="0" /><path
     style="fill:#ffffff;fill-opacity:1;stroke:#ffffff;stroke-linejoin:round;stroke-opacity:1"
     id="path302"
     d="m 11814,6204 v 250 h 250 v -250 z"
     inkscape:connector-curvature="0" /><path
     style="fill:#ffffff;fill-opacity:1;stroke:#ffffff;stroke-opacity:1"
     id="path304"
     d="m 11948,7794 v 250 h 250 v -250 z"
     inkscape:connector-curvature="0" /><path
     style="fill:#ffffff;fill-opacity:1;stroke:#ffffff;stroke-linejoin:round;stroke-opacity:1"
     id="path306"
     d="m 11948,7794 v 250 h 250 v -250 z"
     inkscape:connector-curvature="0" /><path
     style="fill:#ffffff;fill-opacity:1;stroke:#ffffff;stroke-opacity:1"
     id="path308"
     d="m 12082,7653 v 250 h 250 v -250 z"
     inkscape:connector-curvature="0" /><path
     style="fill:#ffffff;fill-opacity:1;stroke:#ffffff;stroke-linejoin:round;stroke-opacity:1"
     id="path310"
     d="m 12082,7653 v 250 h 250 v -250 z"
     inkscape:connector-curvature="0" /><path
     style="fill:#ffffff;fill-opacity:1;stroke:#ffffff;stroke-opacity:1"
     id="path312"
     d="m 12215,8192 v 250 h 250 v -250 z"
     inkscape:connector-curvature="0" /><path
     style="fill:#ffffff;fill-opacity:1;stroke:#ffffff;stroke-linejoin:round;stroke-opacity:1"
     id="path314"
     d="m 11069.051,8777.0918 v 250 h 250 v -250 z"
     inkscape:connector-curvature="0" /><path
     style="fill:#ffffff;fill-opacity:1;stroke:#ffffff;stroke-opacity:1"
     id="path316"
     d="m 12349,8242 v 250 h 250 v -250 z"
     inkscape:connector-curvature="0" /><path
     style="fill:#ffffff;fill-opacity:1;stroke:#ffffff;stroke-linejoin:round;stroke-opacity:1"
     id="path318"
     d="m 12349,8242 v 250 h 250 v -250 z"
     inkscape:connector-curvature="0" /><path
     style="fill:#ffffff;fill-opacity:1;stroke:#ffffff;stroke-opacity:1"
     id="path320"
     d="m 12483,7902 v 250 h 250 v -250 z"
     inkscape:connector-curvature="0" /><path
     style="fill:#ffffff;fill-opacity:1;stroke:#ffffff;stroke-linejoin:round;stroke-opacity:1"
     id="path322"
     d="m 12483,7902 v 250 h 250 v -250 z"
     inkscape:connector-curvature="0" /><path
     style="fill:#ffffff;fill-opacity:1;stroke:#ffffff;stroke-opacity:1"
     id="path324"
     d="m 12617,7942 v 250 h 250 v -250 z"
     inkscape:connector-curvature="0" /><path
     style="fill:#ffffff;fill-opacity:1;stroke:#ffffff;stroke-linejoin:round;stroke-opacity:1"
     id="path326"
     d="m 12617,7942 v 250 h 250 v -250 z"
     inkscape:connector-curvature="0" /><path
     style="fill:#ffffff;fill-opacity:1;stroke:#ffffff;stroke-opacity:1"
     id="path328"
     d="m 12751,8052 v 250 h 250 v -250 z"
     inkscape:connector-curvature="0" /><path
     style="fill:#ffffff;fill-opacity:1;stroke:#ffffff;stroke-linejoin:round;stroke-opacity:1"
     id="path330"
     d="m 12751,8052 v 250 h 250 v -250 z"
     inkscape:connector-curvature="0" /><path
     style="fill:#ffffff;fill-opacity:1;stroke:#ffffff;stroke-opacity:1"
     id="path332"
     d="m 12884,8221 v 250 h 250 v -250 z"
     inkscape:connector-curvature="0" /><path
     style="fill:#ffffff;fill-opacity:1;stroke:#ffffff;stroke-linejoin:round;stroke-opacity:1"
     id="path334"
     d="m 12884,8221 v 250 h 250 v -250 z"
     inkscape:connector-curvature="0" /><path
     style="fill:#ffffff;fill-opacity:1;stroke:#ffffff;stroke-opacity:1"
     id="path336"
     d="m 13018,8367 v 250 h 250 v -250 z"
     inkscape:connector-curvature="0" /><path
     style="fill:#ffffff;fill-opacity:1;stroke:#ffffff;stroke-linejoin:round;stroke-opacity:1"
     id="path338"
     d="m 13018,8367 v 250 h 250 v -250 z"
     inkscape:connector-curvature="0" /><path
     style="fill:#ffffff;fill-opacity:1;stroke:#ffffff;stroke-opacity:1"
     id="path340"
     d="m 13152,8135 v 250 h 250 v -250 z"
     inkscape:connector-curvature="0" /><path
     style="fill:#ffffff;fill-opacity:1;stroke:#ffffff;stroke-linejoin:round;stroke-opacity:1"
     id="path342"
     d="m 13152,8135 v 250 h 250 v -250 z"
     inkscape:connector-curvature="0" /><path
     style="fill:#ffffff;fill-opacity:1;stroke:#ffffff;stroke-opacity:1"
     id="path344"
     d="m 13286,8219 v 250 h 250 v -250 z"
     inkscape:connector-curvature="0" /><path
     style="fill:#ffffff;fill-opacity:1;stroke:#ffffff;stroke-linejoin:round;stroke-opacity:1"
     id="path346"
     d="m 13286,8219 v 250 h 250 v -250 z"
     inkscape:connector-curvature="0" /><path
     style="fill:#ffffff;fill-opacity:1;stroke:#ffffff;stroke-opacity:1"
     id="path348"
     d="m 13420,8316 v 250 h 250 v -250 z"
     inkscape:connector-curvature="0" /><path
     style="fill:#ffffff;fill-opacity:1;stroke:#ffffff;stroke-linejoin:round;stroke-opacity:1"
     id="path350"
     d="m 13420,8316 v 250 h 250 v -250 z"
     inkscape:connector-curvature="0" /><path
     style="fill:#ffffff;fill-opacity:1;stroke:#ffffff;stroke-opacity:1"
     id="path352"
     d="m 13553,8392 v 250 h 249 v -250 z"
     inkscape:connector-curvature="0" /><path
     style="fill:#ffffff;fill-opacity:1;stroke:#ffffff;stroke-linejoin:round;stroke-opacity:1"
     id="path354"
     d="m 13553,8392 v 250 h 249 v -250 z"
     inkscape:connector-curvature="0" /><path
     style="fill:#ffffff;fill-opacity:1;stroke:#ffffff;stroke-opacity:1"
     id="path356"
     d="m 13687,8332 v 250 h 249 v -250 z"
     inkscape:connector-curvature="0" /><path
     style="fill:#ffffff;fill-opacity:1;stroke:#ffffff;stroke-linejoin:round;stroke-opacity:1"
     id="path358"
     d="m 13687,8332 v 250 h 249 v -250 z"
     inkscape:connector-curvature="0" /><path
     style="fill:#ffffff;fill-opacity:1;stroke:#ffffff;stroke-opacity:1"
     id="path360"
     d="m 13820,8210 v 250 h 250 v -250 z"
     inkscape:connector-curvature="0" /><path
     style="fill:#ffffff;fill-opacity:1;stroke:#ffffff;stroke-linejoin:round;stroke-opacity:1"
     id="path362"
     d="m 13820,8210 v 250 h 250 v -250 z"
     inkscape:connector-curvature="0" /><path
     style="fill:#ffffff;fill-opacity:1;stroke:#ffffff;stroke-opacity:1"
     id="path364"
     d="m 13954,7987 v 250 h 250 v -250 z"
     inkscape:connector-curvature="0" /><path
     style="fill:#ffffff;fill-opacity:1;stroke:#ffffff;stroke-linejoin:round;stroke-opacity:1"
     id="path366"
     d="m 13954,7987 v 250 h 250 v -250 z"
     inkscape:connector-curvature="0" /><path
     style="fill:#ffffff;fill-opacity:1;stroke:#ffffff;stroke-opacity:1"
     id="path368"
     d="m 14087,7753 v 250 h 250 v -250 z"
     inkscape:connector-curvature="0" /><path
     style="fill:#ffffff;fill-opacity:1;stroke:#ffffff;stroke-linejoin:round;stroke-opacity:1"
     id="path370"
     d="m 14087,7753 v 250 h 250 v -250 z"
     inkscape:connector-curvature="0" /><path
     style="fill:#ffffff;fill-opacity:1;stroke:#ffffff;stroke-opacity:1"
     id="path372"
     d="m 14221,8064 v 250 h 250 v -250 z"
     inkscape:connector-curvature="0" /><path
     style="fill:#ffffff;fill-opacity:1;stroke:#ffffff;stroke-linejoin:round;stroke-opacity:1"
     id="path374"
     d="m 14221,8064 v 250 h 250 v -250 z"
     inkscape:connector-curvature="0" /><path
     style="fill:#ffffff;fill-opacity:1;stroke:#ffffff;stroke-opacity:1"
     id="path376"
     d="m 14355,8007 v 250 h 250 v -250 z"
     inkscape:connector-curvature="0" /><path
     style="fill:#ffffff;fill-opacity:1;stroke:#ffffff;stroke-linejoin:round;stroke-opacity:1"
     id="path378"
     d="m 14355,8007 v 250 h 250 v -250 z"
     inkscape:connector-curvature="0" /><path
     style="fill:#ffffff;fill-opacity:1;stroke:#ffffff;stroke-opacity:1"
     id="path380"
     d="m 14489,7912 v 250 h 250 v -250 z"
     inkscape:connector-curvature="0" /><path
     style="fill:#ffffff;fill-opacity:1;stroke:#ffffff;stroke-linejoin:round;stroke-opacity:1"
     id="path382"
     d="m 14489,7912 v 250 h 250 v -250 z"
     inkscape:connector-curvature="0" /><path
     style="fill:#ffffff;fill-opacity:1;stroke:#ffffff;stroke-opacity:1"
     id="path384"
     d="m 14623,8089 v 250 h 250 v -250 z"
     inkscape:connector-curvature="0" /><path
     style="fill:#ffffff;fill-opacity:1;stroke:#ffffff;stroke-linejoin:round;stroke-opacity:1"
     id="path386"
     d="m 14623,8089 v 250 h 250 v -250 z"
     inkscape:connector-curvature="0" /><path
     style="fill:#ffffff;fill-opacity:1;stroke:#ffffff;stroke-opacity:1"
     id="path388"
     d="m 14756,7868 v 250 h 250 v -250 z"
     inkscape:connector-curvature="0" /><path
     style="fill:#ffffff;fill-opacity:1;stroke:#ffffff;stroke-linejoin:round;stroke-opacity:1"
     id="path390"
     d="m 14756,7868 v 250 h 250 v -250 z"
     inkscape:connector-curvature="0" /><path
     style="fill:#ffffff;fill-opacity:1;stroke:#ffffff;stroke-opacity:1"
     id="path392"
     d="m 14890,7712 v 250 h 250 v -250 z"
     inkscape:connector-curvature="0" /><path
     style="fill:#ffffff;fill-opacity:1;stroke:#ffffff;stroke-linejoin:round;stroke-opacity:1"
     id="path394"
     d="m 14890,7712 v 250 h 250 v -250 z"
     inkscape:connector-curvature="0" /><path
     style="fill:#ffffff;fill-opacity:1;stroke:#ffffff;stroke-opacity:1"
     id="path396"
     d="m 15024,7513 v 250 h 250 v -250 z"
     inkscape:connector-curvature="0" /><path
     style="fill:#ffffff;fill-opacity:1;stroke:#ffffff;stroke-linejoin:round;stroke-opacity:1"
     id="path398"
     d="m 15024,7513 v 250 h 250 v -250 z"
     inkscape:connector-curvature="0" /><path
     style="fill:#ffffff;fill-opacity:1;stroke:#ffffff;stroke-opacity:1"
     id="path400"
     d="m 15158,7444 v 250 h 250 v -250 z"
     inkscape:connector-curvature="0" /><path
     style="fill:#ffffff;fill-opacity:1;stroke:#ffffff;stroke-linejoin:round;stroke-opacity:1"
     id="path402"
     d="m 15158,7444 v 250 h 250 v -250 z"
     inkscape:connector-curvature="0" /><path
     style="fill:#ffffff;fill-opacity:1;stroke:#ffffff;stroke-opacity:1"
     id="path404"
     d="m 15292,7155 v 250 h 250 v -250 z"
     inkscape:connector-curvature="0" /><path
     style="fill:#ffffff;fill-opacity:1;stroke:#ffffff;stroke-linejoin:round;stroke-opacity:1"
     id="path406"
     d="m 15292,7155 v 250 h 250 v -250 z"
     inkscape:connector-curvature="0" /><path
     style="fill:#ffffff;fill-opacity:1;stroke:#ffffff;stroke-opacity:1"
     id="path408"
     d="m 15425,6687 v 250 h 250 v -250 z"
     inkscape:connector-curvature="0" /><path
     style="fill:#ffffff;fill-opacity:1;stroke:#ffffff;stroke-linejoin:round;stroke-opacity:1"
     id="path410"
     d="m 15425,6687 v 250 h 250 v -250 z"
     inkscape:connector-curvature="0" /><path
     style="fill:#ffffff;fill-opacity:1;stroke:#ffffff;stroke-opacity:1"
     id="path412"
     d="m 15559,6630 v 250 h 250 v -250 z"
     inkscape:connector-curvature="0" /><path
     style="fill:#ffffff;fill-opacity:1;stroke:#ffffff;stroke-linejoin:round;stroke-opacity:1"
     id="path414"
     d="m 15559,6630 v 250 h 250 v -250 z"
     inkscape:connector-curvature="0" /><path
     style="fill:#ffffff;fill-opacity:1;stroke:#ffffff;stroke-opacity:1"
     id="path416"
     d="m 15693,5919 v 250 h 250 v -250 z"
     inkscape:connector-curvature="0" /><path
     style="fill:#ffffff;fill-opacity:1;stroke:#ffffff;stroke-linejoin:round;stroke-opacity:1"
     id="path418"
     d="m 15693,5919 v 250 h 250 v -250 z"
     inkscape:connector-curvature="0" /><path
     style="fill:#ffffff;fill-opacity:1;stroke:#ffffff;stroke-opacity:1"
     id="path420"
     d="m 15827,8545 v 249 h 250 v -249 z"
     inkscape:connector-curvature="0" /><path
     style="fill:#ffffff;fill-opacity:1;stroke:#ffffff;stroke-linejoin:round;stroke-opacity:1"
     id="path422"
     d="m 15827,8545 v 249 h 250 v -249 z"
     inkscape:connector-curvature="0" /><path
     style="fill:#ffffff;fill-opacity:1;stroke:#ffffff;stroke-opacity:1"
     id="path424"
     d="m 15960,6736 v 250 h 250 v -250 z"
     inkscape:connector-curvature="0" /><path
     style="fill:#ffffff;fill-opacity:1;stroke:#ffffff;stroke-linejoin:round;stroke-opacity:1"
     id="path426"
     d="m 15960,6736 v 250 h 250 v -250 z"
     inkscape:connector-curvature="0" /><path
     style="fill:#ffffff;fill-opacity:1;stroke:#ffffff;stroke-opacity:1"
     id="path428"
     d="m 16094,6184 v 250 h 250 v -250 z"
     inkscape:connector-curvature="0" /><path
     style="fill:#ffffff;fill-opacity:1;stroke:#ffffff;stroke-linejoin:round;stroke-opacity:1"
     id="path430"
     d="m 16094,6184 v 250 h 250 v -250 z"
     inkscape:connector-curvature="0" /><path
     style="fill:#ffffff;fill-opacity:1;stroke:#ffffff;stroke-opacity:1"
     id="path432"
     d="m 16228,6222 v 250 h 250 v -250 z"
     inkscape:connector-curvature="0" /><path
     style="fill:#ffffff;fill-opacity:1;stroke:#ffffff;stroke-linejoin:round;stroke-opacity:1"
     id="path434"
     d="m 16228,6222 v 250 h 250 v -250 z"
     inkscape:connector-curvature="0" /><path
     style="fill:#ffffff;fill-opacity:1;stroke:#ffffff;stroke-opacity:1"
     id="path436"
     d="m 16362,6438 v 250 h 250 v -250 z"
     inkscape:connector-curvature="0" /><path
     style="fill:#ffffff;fill-opacity:1;stroke:#ffffff;stroke-linejoin:round;stroke-opacity:1"
     id="path438"
     d="m 16362,6438 v 250 h 250 v -250 z"
     inkscape:connector-curvature="0" /><path
     style="fill:#ffffff;fill-opacity:1;stroke:#ffffff;stroke-opacity:1"
     id="path440"
     d="m 16496,6216 v 250 h 250 v -250 z"
     inkscape:connector-curvature="0" /><path
     style="fill:#ffffff;fill-opacity:1;stroke:#ffffff;stroke-linejoin:round;stroke-opacity:1"
     id="path442"
     d="m 16496,6216 v 250 h 250 v -250 z"
     inkscape:connector-curvature="0" /><path
     style="fill:#ffffff;fill-opacity:1;stroke:#ffffff;stroke-opacity:1"
     id="path444"
     d="m 16629,6106 v 250 h 250 v -250 z"
     inkscape:connector-curvature="0" /><path
     style="fill:#ffffff;fill-opacity:1;stroke:#ffffff;stroke-linejoin:round;stroke-opacity:1"
     id="path446"
     d="m 16629,6106 v 250 h 250 v -250 z"
     inkscape:connector-curvature="0" /><path
     style="fill:#ffffff;fill-opacity:1;stroke:#ffffff;stroke-opacity:1"
     id="path448"
     d="m 16763,5606 v 250 h 250 v -250 z"
     inkscape:connector-curvature="0" /><path
     style="fill:#ffffff;fill-opacity:1;stroke:#ffffff;stroke-linejoin:round;stroke-opacity:1"
     id="path450"
     d="m 16763,5606 v 250 h 250 v -250 z"
     inkscape:connector-curvature="0" /><path
     style="fill:#ffffff;fill-opacity:1;stroke:#ffffff;stroke-opacity:1"
     id="path452"
     d="m 16897,5404 v 250 h 250 v -250 z"
     inkscape:connector-curvature="0" /><path
     style="fill:#ffffff;fill-opacity:1;stroke:#ffffff;stroke-linejoin:round;stroke-opacity:1"
     id="path454"
     d="m 16897,5404 v 250 h 250 v -250 z"
     inkscape:connector-curvature="0" /><path
     style="fill:#ffffff;fill-opacity:1;stroke:#ffffff;stroke-opacity:1"
     id="path456"
     d="m 17031,5209 v 250 h 250 v -250 z"
     inkscape:connector-curvature="0" /><path
     style="fill:#ffffff;fill-opacity:1;stroke:#ffffff;stroke-linejoin:round;stroke-opacity:1"
     id="path458"
     d="m 17031,5209 v 250 h 250 v -250 z"
     inkscape:connector-curvature="0" /><path
     style="fill:#ffffff;fill-opacity:1;stroke:#ffffff;stroke-opacity:1"
     id="path460"
     d="m 17165,5649 v 250 h 250 v -250 z"
     inkscape:connector-curvature="0" /><path
     style="fill:#ffffff;fill-opacity:1;stroke:#ffffff;stroke-linejoin:round;stroke-opacity:1"
     id="path462"
     d="m 17165,5649 v 250 h 250 v -250 z"
     inkscape:connector-curvature="0" /><path
     style="fill:#ffffff;fill-opacity:1;stroke:#ffffff;stroke-opacity:1"
     id="path464"
     d="m 17298,5059 v 250 h 250 v -250 z"
     inkscape:connector-curvature="0" /><path
     style="fill:#ffffff;fill-opacity:1;stroke:#ffffff;stroke-linejoin:round;stroke-opacity:1"
     id="path466"
     d="m 17298,5059 v 250 h 250 v -250 z"
     inkscape:connector-curvature="0" /><path
     style="fill:#ffffff;fill-opacity:1;stroke:#ffffff;stroke-opacity:1"
     id="path468"
     d="m 17432,4732 v 250 h 250 v -250 z"
     inkscape:connector-curvature="0" /><path
     style="fill:#ffffff;fill-opacity:1;stroke:#ffffff;stroke-linejoin:round;stroke-opacity:1"
     id="path470"
     d="m 17432,4732 v 250 h 250 v -250 z"
     inkscape:connector-curvature="0" /><path
     style="fill:#ffffff;fill-opacity:1;stroke:#ffffff;stroke-opacity:1"
     id="path472"
     d="m 17566,4641 v 250 h 250 v -250 z"
     inkscape:connector-curvature="0" /><path
     style="fill:#ffffff;fill-opacity:1;stroke:#ffffff;stroke-linejoin:round;stroke-opacity:1"
     id="path474"
     d="m 17566,4641 v 250 h 250 v -250 z"
     inkscape:connector-curvature="0" /><path
     style="fill:#ffffff;fill-opacity:1;stroke:#ffffff;stroke-opacity:1"
     id="path476"
     d="m 17700,5781 v 250 h 250 v -250 z"
     inkscape:connector-curvature="0" /><path
     style="fill:#ffffff;fill-opacity:1;stroke:#ffffff;stroke-linejoin:round;stroke-opacity:1"
     id="path478"
     d="m 17700,5781 v 250 h 250 v -250 z"
     inkscape:connector-curvature="0" /><path
     style="fill:#ffffff;fill-opacity:1;stroke:#ffffff;stroke-opacity:1"
     id="path480"
     d="m 17833,6010 v 250 h 250 v -250 z"
     inkscape:connector-curvature="0" /><path
     style="fill:#ffffff;fill-opacity:1;stroke:#ffffff;stroke-linejoin:round;stroke-opacity:1"
     id="path482"
     d="m 17833,6010 v 250 h 250 v -250 z"
     inkscape:connector-curvature="0" /><path
     style="fill:#ffffff;fill-opacity:1;stroke:#ffffff;stroke-opacity:1"
     id="path484"
     d="m 17967,7325 v 250 h 250 v -250 z"
     inkscape:connector-curvature="0" /><path
     style="fill:#ffffff;fill-opacity:1;stroke:#ffffff;stroke-linejoin:round;stroke-opacity:1"
     id="path486"
     d="m 17967,7325 v 250 h 250 v -250 z"
     inkscape:connector-curvature="0" /><path
     style="fill:#ffffff;fill-opacity:1;stroke:#ffffff;stroke-opacity:1"
     id="path488"
     d="m 18101,6331 v 250 h 250 v -250 z"
     inkscape:connector-curvature="0" /><path
     style="fill:#ffffff;fill-opacity:1;stroke:#ffffff;stroke-linejoin:round;stroke-opacity:1"
     id="path490"
     d="m 18101,6331 v 250 h 250 v -250 z"
     inkscape:connector-curvature="0" /><path
     style="fill:#ffffff;fill-opacity:1;stroke:#ffffff;stroke-opacity:1"
     id="path492"
     d="m 18235,7362 v 250 h 250 v -250 z"
     inkscape:connector-curvature="0" /><path
     style="fill:#ffffff;fill-opacity:1;stroke:#ffffff;stroke-linejoin:round;stroke-opacity:1"
     id="path494"
     d="m 18235,7362 v 250 h 250 v -250 z"
     inkscape:connector-curvature="0" /><path
     style="fill:#ffffff;fill-opacity:1;stroke:#ffffff;stroke-opacity:1"
     id="path496"
     d="m 18369,7263 v 250 h 250 v -250 z"
     inkscape:connector-curvature="0" /><path
     style="fill:#ffffff;fill-opacity:1;stroke:#ffffff;stroke-linejoin:round;stroke-opacity:1"
     id="path498"
     d="m 18369,7263 v 250 h 250 v -250 z"
     inkscape:connector-curvature="0" /><path
     style="fill:#ffffff;fill-opacity:1;stroke:#ffffff;stroke-opacity:1"
     id="path500"
     d="m 18502,7576 v 250 h 250 v -250 z"
     inkscape:connector-curvature="0" /><path
     style="fill:#ffffff;fill-opacity:1;stroke:#ffffff;stroke-linejoin:round;stroke-opacity:1"
     id="path502"
     d="m 18502,7576 v 250 h 250 v -250 z"
     inkscape:connector-curvature="0" /><path
     style="fill:#ffffff;fill-opacity:1;stroke:#ffffff;stroke-opacity:1"
     id="path504"
     d="m 18636,7251 v 250 h 250 v -250 z"
     inkscape:connector-curvature="0" /><path
     style="fill:#ffffff;fill-opacity:1;stroke:#ffffff;stroke-linejoin:round;stroke-opacity:1"
     id="path506"
     d="m 18636,7251 v 250 h 250 v -250 z"
     inkscape:connector-curvature="0" /><path
     style="fill:#ffffff;fill-opacity:1;stroke:#ffffff;stroke-opacity:1"
     id="path508"
     d="m 18770,8461 v 249 h 250 v -249 z"
     inkscape:connector-curvature="0" /><path
     style="fill:#ffffff;fill-opacity:1;stroke:#ffffff;stroke-linejoin:round;stroke-opacity:1"
     id="path510"
     d="m 18770,8461 v 249 h 250 v -249 z"
     inkscape:connector-curvature="0" /><path
     style="fill:#ffffff;fill-opacity:1;stroke:#ffffff;stroke-opacity:1"
     id="path512"
     d="m 18904,7474 v 250 h 250 v -250 z"
     inkscape:connector-curvature="0" /><path
     style="fill:#ffffff;fill-opacity:1;stroke:#ffffff;stroke-linejoin:round;stroke-opacity:1"
     id="path514"
     d="m 18904,7474 v 250 h 250 v -250 z"
     inkscape:connector-curvature="0" /><path
     style="fill:#ffffff;fill-opacity:1;stroke:#ffffff;stroke-opacity:1"
     id="path516"
     d="m 19038,8649 v 249 h 250 v -249 z"
     inkscape:connector-curvature="0" /><path
     style="fill:#ffffff;fill-opacity:1;stroke:#ffffff;stroke-linejoin:round;stroke-opacity:1"
     id="path518"
     d="m 19038,8649 v 249 h 250 v -249 z"
     inkscape:connector-curvature="0" /><path
     style="fill:#ffffff;fill-opacity:1;stroke:#ffffff;stroke-opacity:1"
     id="path520"
     d="m 19171,8607 v 249 h 250 v -249 z"
     inkscape:connector-curvature="0" /><path
     style="fill:#ffffff;fill-opacity:1;stroke:#ffffff;stroke-linejoin:round;stroke-opacity:1"
     id="path522"
     d="m 19171,8607 v 249 h 250 v -249 z"
     inkscape:connector-curvature="0" /><path
     style="fill:#ffffff;fill-opacity:1;stroke:#ffffff;stroke-opacity:1"
     id="path524"
     d="m 19305,7170 v 250 h 250 v -250 z"
     inkscape:connector-curvature="0" /><path
     style="fill:#ffffff;fill-opacity:1;stroke:#ffffff;stroke-linejoin:round;stroke-opacity:1"
     id="path526"
     d="m 19305,7170 v 250 h 250 v -250 z"
     inkscape:connector-curvature="0" /><path
     style="fill:#ffffff;fill-opacity:1;stroke:#ffffff;stroke-opacity:1"
     id="path528"
     d="m 19439,8886 v 250 h 250 v -250 z"
     inkscape:connector-curvature="0" /><path
     style="fill:#ffffff;fill-opacity:1;stroke:#ffffff;stroke-linejoin:round;stroke-opacity:1"
     id="path530"
     d="m 19439,8886 v 250 h 250 v -250 z"
     inkscape:connector-curvature="0" /><path
     style="fill:#ffffff;fill-opacity:1;stroke:#ffffff;stroke-opacity:1"
     id="path532"
     d="m 19573,9139 v 250 h 250 v -250 z"
     inkscape:connector-curvature="0" /><path
     style="fill:#ffffff;fill-opacity:1;stroke:#ffffff;stroke-linejoin:round;stroke-opacity:1"
     id="path534"
     d="m 19573,9139 v 250 h 250 v -250 z"
     inkscape:connector-curvature="0" /><path
     style="fill:#ffffff;fill-opacity:1;stroke:#ffffff;stroke-opacity:1"
     id="path536"
     d="m 19707,9195 v 250 h 250 v -250 z"
     inkscape:connector-curvature="0" /><path
     style="fill:#ffffff;fill-opacity:1;stroke:#ffffff;stroke-linejoin:round;stroke-opacity:1"
     id="path538"
     d="m 19707,9195 v 250 h 250 v -250 z"
     inkscape:connector-curvature="0" /><path
     style="fill:#ffffff;fill-opacity:1;stroke:#ffffff;stroke-opacity:1"
     id="path540"
     d="m 19840,12647 v 250 h 250 v -250 z"
     inkscape:connector-curvature="0" /><path
     style="fill:#ffffff;fill-opacity:1;stroke:#ffffff;stroke-linejoin:round;stroke-opacity:1"
     id="path542"
     d="m 19840,12647 v 250 h 250 v -250 z"
     inkscape:connector-curvature="0" /><path
     style="fill:#ffffff;fill-opacity:1;stroke:#ffffff;stroke-opacity:1"
     id="path544"
     d="m 19974,11035 v 250 h 250 v -250 z"
     inkscape:connector-curvature="0" /><path
     style="fill:#ffffff;fill-opacity:1;stroke:#ffffff;stroke-linejoin:round;stroke-opacity:1"
     id="path546"
     d="m 19974,11035 v 250 h 250 v -250 z"
     inkscape:connector-curvature="0" /><path
     style="fill:#ffffff;fill-opacity:1;stroke:#ffffff;stroke-opacity:1"
     id="path548"
     d="m 20108,8334 v 250 h 250 v -250 z"
     inkscape:connector-curvature="0" /><path
     style="fill:#ffffff;fill-opacity:1;stroke:#ffffff;stroke-linejoin:round;stroke-opacity:1"
     id="path550"
     d="m 20108,8334 v 250 h 250 v -250 z"
     inkscape:connector-curvature="0" /><path
     style="fill:#ffffff;fill-opacity:1;stroke:#ffffff;stroke-opacity:1"
     id="path552"
     d="m 20242,8097 v 250 h 250 v -250 z"
     inkscape:connector-curvature="0" /><path
     style="fill:#ffffff;fill-opacity:1;stroke:#ffffff;stroke-linejoin:round;stroke-opacity:1"
     id="path554"
     d="m 20242,8097 v 250 h 250 v -250 z"
     inkscape:connector-curvature="0" /><path
     style="fill:#ffffff;fill-opacity:1;stroke:#ffffff;stroke-opacity:1"
     id="path556"
     d="m 20375,9922 v 250 h 250 v -250 z"
     inkscape:connector-curvature="0" /><path
     style="fill:#ffffff;fill-opacity:1;stroke:#ffffff;stroke-linejoin:round;stroke-opacity:1"
     id="path558"
     d="m 20375,9922 v 250 h 250 v -250 z"
     inkscape:connector-curvature="0" /><path
     style="fill:#ffffff;fill-opacity:1;stroke:#ffffff;stroke-opacity:1"
     id="path560"
     d="m 20509,10146 v 250 h 250 v -250 z"
     inkscape:connector-curvature="0" /><path
     style="fill:#ffffff;fill-opacity:1;stroke:#ffffff;stroke-linejoin:round;stroke-opacity:1"
     id="path562"
     d="m 20509,10146 v 250 h 250 v -250 z"
     inkscape:connector-curvature="0" /><path
     style="fill:#ffffff;fill-opacity:1;stroke:#ffffff;stroke-opacity:1"
     id="path564"
     d="m 20643,10445 v 250 h 250 v -250 z"
     inkscape:connector-curvature="0" /><path
     style="fill:#ffffff;fill-opacity:1;stroke:#ffffff;stroke-linejoin:round;stroke-opacity:1"
     id="path566"
     d="m 20643,10445 v 250 h 250 v -250 z"
     inkscape:connector-curvature="0" /><path
     style="fill:#ffffff;fill-opacity:1;stroke:#ffffff;stroke-opacity:1"
     id="path568"
     d="m 20777,10858 v 250 h 250 v -250 z"
     inkscape:connector-curvature="0" /><path
     style="fill:#ffffff;fill-opacity:1;stroke:#ffffff;stroke-linejoin:round;stroke-opacity:1"
     id="path570"
     d="m 20777,10858 v 250 h 250 v -250 z"
     inkscape:connector-curvature="0" /><path
     style="fill:#ffffff;fill-opacity:1;stroke:#ffffff;stroke-opacity:1"
     id="path572"
     d="m 20911,11229 v 250 h 250 v -250 z"
     inkscape:connector-curvature="0" /><path
     style="fill:#ffffff;fill-opacity:1;stroke:#ffffff;stroke-linejoin:round;stroke-opacity:1"
     id="path574"
     d="m 20911,11229 v 250 h 250 v -250 z"
     inkscape:connector-curvature="0" /><path
     style="fill:#ffffff;fill-opacity:1;stroke:#ffffff;stroke-opacity:1"
     id="path576"
     d="m 21044,10935 v 250 h 250 v -250 z"
     inkscape:connector-curvature="0" /><path
     style="fill:#ffffff;fill-opacity:1;stroke:#ffffff;stroke-linejoin:round;stroke-opacity:1"
     id="path578"
     d="m 21044,10935 v 250 h 250 v -250 z"
     inkscape:connector-curvature="0" /></g>


























































































































































 


<text
   xml:space="preserve"
   style="font-style:normal;font-variant:normal;font-weight:bold;font-stretch:normal;font-size:1058.33px;line-height:1.25;font-family:sans-serif;-inkscape-font-specification:'sans-serif Bold';letter-spacing:0px;word-spacing:0px;fill:#000000;fill-opacity:1;stroke:none;stroke-width:746.707"
   x="56065.207"
   y="34779.48"
   id="text2098" />







<g
   id="g1378"
   transform="matrix(0.97873647,0,0,0.97873647,-210.99356,-916.57611)"><text
     class="TextShape"
     id="text738"
     style="font-size:26.2165px;fill:#000000;fill-opacity:1;stroke:#ffffff;stroke-width:61.657;stroke-opacity:1"
     y="2080.8223"
     x="1589.3051"><tspan
       class="TextParagraph"
       font-size="459px"
       font-weight="400"
       id="tspan736"
       style="font-weight:400;font-size:1002.78px;font-family:'Liberation Sans', sans-serif;fill:#000000;fill-opacity:1;stroke:none;stroke-width:61.657;stroke-opacity:1"><tspan
         class="TextPosition"
         x="22717.67"
         y="4193.4395"
         id="tspan734"
         style="fill:#000000;fill-opacity:1;stroke:none;stroke-width:61.657;stroke-opacity:1">Yearly registered literature per person in the United States </tspan></tspan></text><text
     class="TextShape"
     style="font-size:26.2165px;fill:#000000;fill-opacity:1;stroke:#ffffff;stroke-width:61.657;stroke-opacity:1"
     y="3292.615"
     x="11751.3"
     id="text1656"><tspan
       class="TextParagraph"
       font-size="459px"
       font-weight="400"
       style="font-style:normal;font-variant:normal;font-weight:bold;font-stretch:normal;font-size:1002.78px;font-family:'Liberation Sans', sans-serif;-inkscape-font-specification:'Liberation Sans, sans-serif Bold';fill:#000000;fill-opacity:1;stroke:none;stroke-width:61.657;stroke-opacity:1"
       id="tspan1658"><tspan
         class="TextPosition"
         x="32879.668"
         y="5405.2324"
         style="font-style:normal;font-variant:normal;font-weight:bold;font-stretch:normal;font-family:'Liberation Sans', sans-serif;-inkscape-font-specification:'Liberation Sans, sans-serif Bold';fill:#000000;fill-opacity:1;stroke:none;stroke-width:61.657;stroke-opacity:1"
         id="tspan1660">1900-2017</tspan></tspan></text><path
     d="M 36561.599,33604.025 H 13178.608 V 6120.327 h 46763.797 v 27483.698 z"
     id="path4"
     inkscape:connector-curvature="0"
     style="fill:none;fill-opacity:1;stroke:#1e1e1e;stroke-width:143.78;stroke-linejoin:round;stroke-miterlimit:4;stroke-dasharray:none;stroke-opacity:1" /><path
     d="M 59942.405,33601.841 H 13178.608"
     id="path6"
     style="fill:none;fill-opacity:1;stroke:#1e1e1e;stroke-width:143.78;stroke-linejoin:round;stroke-miterlimit:4;stroke-dasharray:none;stroke-opacity:1"
     inkscape:connector-curvature="0" /><path
     d="M 59942.405,30547.611 H 13178.608"
     id="path8"
     inkscape:connector-curvature="0"
     style="fill:none;fill-opacity:1;stroke:#1e1e1e;stroke-width:143.78;stroke-linejoin:round;stroke-miterlimit:4;stroke-dasharray:none;stroke-opacity:1" /><path
     d="M 59942.405,27493.381 H 13178.608"
     id="path10"
     inkscape:connector-curvature="0"
     style="fill:none;fill-opacity:1;stroke:#1e1e1e;stroke-width:143.78;stroke-linejoin:round;stroke-miterlimit:4;stroke-dasharray:none;stroke-opacity:1" /><path
     d="M 59942.405,24439.151 H 13178.608"
     id="path12"
     inkscape:connector-curvature="0"
     style="fill:none;fill-opacity:1;stroke:#1e1e1e;stroke-width:143.78;stroke-linejoin:round;stroke-miterlimit:4;stroke-dasharray:none;stroke-opacity:1" /><path
     d="M 59942.405,21384.922 H 13178.608"
     id="path14"
     inkscape:connector-curvature="0"
     style="fill:none;fill-opacity:1;stroke:#1e1e1e;stroke-width:143.78;stroke-linejoin:round;stroke-miterlimit:4;stroke-dasharray:none;stroke-opacity:1" /><path
     d="M 59942.405,18332.877 H 13178.608"
     id="path16"
     inkscape:connector-curvature="0"
     style="fill:none;fill-opacity:1;stroke:#1e1e1e;stroke-width:143.78;stroke-linejoin:round;stroke-miterlimit:4;stroke-dasharray:none;stroke-opacity:1" /><path
     d="M 59942.405,15278.647 H 13178.608"
     id="path18"
     inkscape:connector-curvature="0"
     style="fill:none;fill-opacity:1;stroke:#1e1e1e;stroke-width:143.78;stroke-linejoin:round;stroke-miterlimit:4;stroke-dasharray:none;stroke-opacity:1" /><path
     d="M 59942.405,12224.417 H 13178.608"
     id="path20"
     inkscape:connector-curvature="0"
     style="fill:none;fill-opacity:1;stroke:#1e1e1e;stroke-width:143.78;stroke-linejoin:round;stroke-miterlimit:4;stroke-dasharray:none;stroke-opacity:1" /><path
     d="M 59942.405,9170.1873 H 13178.608"
     id="path22"
     inkscape:connector-curvature="0"
     style="fill:none;fill-opacity:1;stroke:#1e1e1e;stroke-width:143.78;stroke-linejoin:round;stroke-miterlimit:4;stroke-dasharray:none;stroke-opacity:1" /><path
     d="M 59942.405,6118.1423 H 13178.608"
     id="path24"
     inkscape:connector-curvature="0"
     style="fill:none;fill-opacity:1;stroke:#1e1e1e;stroke-width:143.78;stroke-linejoin:round;stroke-miterlimit:4;stroke-dasharray:none;stroke-opacity:1" /><path
     d="m 13178.608,33929.548 v -327.707"
     id="path26"
     style="fill:none;fill-opacity:1;stroke:#1e1e1e;stroke-width:143.78;stroke-linejoin:round;stroke-miterlimit:4;stroke-dasharray:none;stroke-opacity:1"
     inkscape:connector-curvature="0" /><path
     d="m 13178.608,33929.548 v -327.707"
     id="path28"
     style="fill:none;fill-opacity:1;stroke:#1e1e1e;stroke-width:143.78;stroke-linecap:round;stroke-linejoin:round;stroke-miterlimit:4;stroke-dasharray:none;stroke-opacity:1"
     inkscape:connector-curvature="0" /><path
     d="m 19022.717,33929.548 v -327.707"
     id="path30"
     style="fill:#000000;fill-opacity:1;stroke:#1e1e1e;stroke-width:143.78;stroke-linejoin:round;stroke-miterlimit:4;stroke-dasharray:none;stroke-opacity:1"
     inkscape:connector-curvature="0" /><path
     d="m 19022.717,33929.548 v -327.707"
     id="path32"
     style="fill:#000000;fill-opacity:1;stroke:#1e1e1e;stroke-width:143.78;stroke-linecap:round;stroke-linejoin:round;stroke-miterlimit:4;stroke-dasharray:none;stroke-opacity:1"
     inkscape:connector-curvature="0" /><path
     d="m 24869.011,33929.548 v -327.707"
     id="path34"
     style="fill:#000000;fill-opacity:1;stroke:#1e1e1e;stroke-width:143.78;stroke-linejoin:round;stroke-miterlimit:4;stroke-dasharray:none;stroke-opacity:1"
     inkscape:connector-curvature="0" /><path
     d="m 24869.011,33929.548 v -327.707"
     id="path36"
     style="fill:#000000;fill-opacity:1;stroke:#1e1e1e;stroke-width:143.78;stroke-linecap:round;stroke-linejoin:round;stroke-miterlimit:4;stroke-dasharray:none;stroke-opacity:1"
     inkscape:connector-curvature="0" /><path
     d="m 30715.305,33929.548 v -327.707"
     id="path38"
     style="fill:#000000;fill-opacity:1;stroke:#1e1e1e;stroke-width:143.78;stroke-linejoin:round;stroke-miterlimit:4;stroke-dasharray:none;stroke-opacity:1"
     inkscape:connector-curvature="0" /><path
     d="m 30715.305,33929.548 v -327.707"
     id="path40"
     style="fill:#000000;fill-opacity:1;stroke:#1e1e1e;stroke-width:143.78;stroke-linecap:round;stroke-linejoin:round;stroke-miterlimit:4;stroke-dasharray:none;stroke-opacity:1"
     inkscape:connector-curvature="0" /><path
     d="m 36561.599,33929.548 v -327.707"
     id="path42"
     style="fill:#000000;fill-opacity:1;stroke:#1e1e1e;stroke-width:143.78;stroke-linejoin:round;stroke-miterlimit:4;stroke-dasharray:none;stroke-opacity:1"
     inkscape:connector-curvature="0" /><path
     d="m 36561.599,33929.548 v -327.707"
     id="path44"
     style="fill:#000000;fill-opacity:1;stroke:#1e1e1e;stroke-width:143.78;stroke-linecap:round;stroke-linejoin:round;stroke-miterlimit:4;stroke-dasharray:none;stroke-opacity:1"
     inkscape:connector-curvature="0" /><path
     d="m 42403.524,33929.548 v -327.707"
     id="path46"
     style="fill:#000000;fill-opacity:1;stroke:#1e1e1e;stroke-width:143.78;stroke-linejoin:round;stroke-miterlimit:4;stroke-dasharray:none;stroke-opacity:1"
     inkscape:connector-curvature="0" /><path
     d="m 42403.524,33929.548 v -327.707"
     id="path48"
     style="fill:#000000;fill-opacity:1;stroke:#1e1e1e;stroke-width:143.78;stroke-linecap:round;stroke-linejoin:round;stroke-miterlimit:4;stroke-dasharray:none;stroke-opacity:1"
     inkscape:connector-curvature="0" /><path
     d="m 48249.818,33929.548 v -327.707"
     id="path50"
     style="fill:#000000;fill-opacity:1;stroke:#1e1e1e;stroke-width:143.78;stroke-linejoin:round;stroke-miterlimit:4;stroke-dasharray:none;stroke-opacity:1"
     inkscape:connector-curvature="0" /><path
     d="m 48249.818,33929.548 v -327.707"
     id="path52"
     style="fill:#000000;fill-opacity:1;stroke:#1e1e1e;stroke-width:143.78;stroke-linecap:round;stroke-linejoin:round;stroke-miterlimit:4;stroke-dasharray:none;stroke-opacity:1"
     inkscape:connector-curvature="0" /><path
     d="m 54096.111,33929.548 v -327.707"
     id="path54"
     style="fill:#000000;fill-opacity:1;stroke:#1e1e1e;stroke-width:143.78;stroke-linejoin:round;stroke-miterlimit:4;stroke-dasharray:none;stroke-opacity:1"
     inkscape:connector-curvature="0" /><path
     d="m 54096.111,33929.548 v -327.707"
     id="path56"
     style="fill:#000000;fill-opacity:1;stroke:#1e1e1e;stroke-width:143.78;stroke-linecap:round;stroke-linejoin:round;stroke-miterlimit:4;stroke-dasharray:none;stroke-opacity:1"
     inkscape:connector-curvature="0" /><path
     d="m 59942.405,33929.548 v -327.707"
     id="path58"
     style="fill:#000000;fill-opacity:1;stroke:#1e1e1e;stroke-width:143.78;stroke-linejoin:round;stroke-miterlimit:4;stroke-dasharray:none;stroke-opacity:1"
     inkscape:connector-curvature="0" /><path
     d="m 59942.405,33929.548 v -327.707"
     id="path60"
     style="fill:#000000;fill-opacity:1;stroke:#1e1e1e;stroke-width:143.78;stroke-linecap:round;stroke-linejoin:round;stroke-miterlimit:4;stroke-dasharray:none;stroke-opacity:1"
     inkscape:connector-curvature="0" /><path
     d="M 13178.608,33601.841 H 59942.405"
     id="path62"
     style="fill:none;fill-opacity:1;stroke:#1e1e1e;stroke-width:143.78;stroke-linejoin:round;stroke-miterlimit:4;stroke-dasharray:none;stroke-opacity:1"
     inkscape:connector-curvature="0" /><path
     d="m 12850.901,33601.841 h 327.707"
     id="path64"
     style="fill:none;fill-opacity:1;stroke:#1e1e1e;stroke-width:143.78;stroke-linejoin:round;stroke-miterlimit:4;stroke-dasharray:none;stroke-opacity:1"
     inkscape:connector-curvature="0" /><path
     d="m 12850.901,33601.841 h 327.707"
     id="path66"
     style="fill:none;fill-opacity:1;stroke:#1e1e1e;stroke-width:143.78;stroke-linecap:round;stroke-linejoin:round;stroke-miterlimit:4;stroke-dasharray:none;stroke-opacity:1"
     inkscape:connector-curvature="0" /><path
     d="m 12850.901,30547.611 h 327.707"
     id="path68"
     style="fill:none;fill-opacity:1;stroke:#1e1e1e;stroke-width:143.78;stroke-linejoin:round;stroke-miterlimit:4;stroke-dasharray:none;stroke-opacity:1"
     inkscape:connector-curvature="0" /><path
     d="m 12850.901,30547.611 h 327.707"
     id="path70"
     style="fill:none;fill-opacity:1;stroke:#1e1e1e;stroke-width:143.78;stroke-linecap:round;stroke-linejoin:round;stroke-miterlimit:4;stroke-dasharray:none;stroke-opacity:1"
     inkscape:connector-curvature="0" /><path
     d="m 12850.901,27493.381 h 327.707"
     id="path72"
     style="fill:none;fill-opacity:1;stroke:#1e1e1e;stroke-width:143.78;stroke-linejoin:round;stroke-miterlimit:4;stroke-dasharray:none;stroke-opacity:1"
     inkscape:connector-curvature="0" /><path
     d="m 12850.901,27493.381 h 327.707"
     id="path74"
     style="fill:none;fill-opacity:1;stroke:#1e1e1e;stroke-width:143.78;stroke-linecap:round;stroke-linejoin:round;stroke-miterlimit:4;stroke-dasharray:none;stroke-opacity:1"
     inkscape:connector-curvature="0" /><path
     d="m 12850.901,24439.151 h 327.707"
     id="path76"
     style="fill:none;fill-opacity:1;stroke:#1e1e1e;stroke-width:143.78;stroke-linejoin:round;stroke-miterlimit:4;stroke-dasharray:none;stroke-opacity:1"
     inkscape:connector-curvature="0" /><path
     d="m 12850.901,24439.151 h 327.707"
     id="path78"
     style="fill:none;fill-opacity:1;stroke:#1e1e1e;stroke-width:143.78;stroke-linecap:round;stroke-linejoin:round;stroke-miterlimit:4;stroke-dasharray:none;stroke-opacity:1"
     inkscape:connector-curvature="0" /><path
     d="m 12850.901,21384.922 h 327.707"
     id="path80"
     style="fill:none;fill-opacity:1;stroke:#1e1e1e;stroke-width:143.78;stroke-linejoin:round;stroke-miterlimit:4;stroke-dasharray:none;stroke-opacity:1"
     inkscape:connector-curvature="0" /><path
     d="m 12850.901,21384.922 h 327.707"
     id="path82"
     style="fill:none;fill-opacity:1;stroke:#1e1e1e;stroke-width:143.78;stroke-linecap:round;stroke-linejoin:round;stroke-miterlimit:4;stroke-dasharray:none;stroke-opacity:1"
     inkscape:connector-curvature="0" /><path
     d="m 12850.901,18332.877 h 327.707"
     id="path84"
     style="fill:none;fill-opacity:1;stroke:#1e1e1e;stroke-width:143.78;stroke-linejoin:round;stroke-miterlimit:4;stroke-dasharray:none;stroke-opacity:1"
     inkscape:connector-curvature="0" /><path
     d="m 12850.901,18332.877 h 327.707"
     id="path86"
     style="fill:none;fill-opacity:1;stroke:#1e1e1e;stroke-width:143.78;stroke-linecap:round;stroke-linejoin:round;stroke-miterlimit:4;stroke-dasharray:none;stroke-opacity:1"
     inkscape:connector-curvature="0" /><path
     d="m 12850.901,15278.647 h 327.707"
     id="path88"
     style="fill:none;fill-opacity:1;stroke:#1e1e1e;stroke-width:143.78;stroke-linejoin:round;stroke-miterlimit:4;stroke-dasharray:none;stroke-opacity:1"
     inkscape:connector-curvature="0" /><path
     d="m 12850.901,15278.647 h 327.707"
     id="path90"
     style="fill:none;fill-opacity:1;stroke:#1e1e1e;stroke-width:143.78;stroke-linecap:round;stroke-linejoin:round;stroke-miterlimit:4;stroke-dasharray:none;stroke-opacity:1"
     inkscape:connector-curvature="0" /><path
     d="m 12850.901,12224.417 h 327.707"
     id="path92"
     style="fill:none;fill-opacity:1;stroke:#1e1e1e;stroke-width:143.78;stroke-linejoin:round;stroke-miterlimit:4;stroke-dasharray:none;stroke-opacity:1"
     inkscape:connector-curvature="0" /><path
     d="m 12850.901,12224.417 h 327.707"
     id="path94"
     style="fill:none;fill-opacity:1;stroke:#1e1e1e;stroke-width:143.78;stroke-linecap:round;stroke-linejoin:round;stroke-miterlimit:4;stroke-dasharray:none;stroke-opacity:1"
     inkscape:connector-curvature="0" /><path
     d="m 12850.901,9170.1873 h 327.707"
     id="path96"
     style="fill:none;fill-opacity:1;stroke:#1e1e1e;stroke-width:143.78;stroke-linejoin:round;stroke-miterlimit:4;stroke-dasharray:none;stroke-opacity:1"
     inkscape:connector-curvature="0" /><path
     d="m 12850.901,9170.1873 h 327.707"
     id="path98"
     style="fill:none;fill-opacity:1;stroke:#1e1e1e;stroke-width:143.78;stroke-linecap:round;stroke-linejoin:round;stroke-miterlimit:4;stroke-dasharray:none;stroke-opacity:1"
     inkscape:connector-curvature="0" /><path
     d="m 12850.901,6118.1423 h 327.707"
     id="path100"
     style="fill:none;fill-opacity:1;stroke:#1e1e1e;stroke-width:143.78;stroke-linejoin:round;stroke-miterlimit:4;stroke-dasharray:none;stroke-opacity:1"
     inkscape:connector-curvature="0" /><path
     d="m 12850.901,6118.1423 h 327.707"
     id="path102"
     style="fill:none;fill-opacity:1;stroke:#1e1e1e;stroke-width:143.78;stroke-linecap:round;stroke-linejoin:round;stroke-miterlimit:4;stroke-dasharray:none;stroke-opacity:1"
     inkscape:connector-curvature="0" /><path
     d="M 13178.608,33601.841 V 6118.1423"
     id="path104"
     style="fill:none;fill-opacity:1;stroke:#1e1e1e;stroke-width:143.78;stroke-linejoin:round;stroke-miterlimit:4;stroke-dasharray:none;stroke-opacity:1"
     inkscape:connector-curvature="0" /><path
     d="m 19022.717,14422.239 292.752,817.083 292.752,251.242 292.751,-659.784 290.568,-633.566 292.751,-1498.714 292.752,-325.522 292.751,-675.076 292.751,1136.05 290.568,327.708 292.751,2470.91 292.753,-701.293 292.751,-541.809 290.566,688.186 292.753,-122.345 292.751,1531.485 292.752,192.254 292.751,961.274 290.567,799.605 292.752,-609.534 292.751,-1465.944 292.752,-821.452 292.752,-170.408 290.566,-902.286 292.752,-1219.07 292.752,32.77 292.752,-1079.248 292.751,-364.848 290.567,-742.802 292.752,3967.44 292.751,-856.408 292.752,1136.051 290.567,1666.936 292.751,1723.74 292.752,-15.293 292.751,-146.375 292.753,-1341.415 290.566,430.389 292.752,-956.905 292.752,-432.573 292.751,-124.529 292.752,159.484 290.567,142.006 292.752,2317.981 292.751,-500.299 292.751,-589.873 290.568,-1778.356 292.751,-1948.765 292.752,-203.178 292.751,3473.694 292.753,-308.044 290.566,1177.561 292.751,109.235 292.753,-742.802 292.751,87.388 292.752,240.318 290.567,369.217 292.751,318.969 292.752,-506.854 292.751,183.516 292.752,211.917 290.567,166.038 290.567,-131.083 292.752,-266.534 292.751,-487.191 290.567,-511.224 292.752,679.446 292.751,-124.528 292.752,-207.549 292.752,386.695 290.566,-482.822 292.752,-340.815 292.752,-434.759 292.752,-150.744 292.751,-631.382 290.567,-1022.447 292.752,-124.528 292.751,-1553.332 292.752,5737.059 290.567,-3952.148 292.752,-1205.961 292.751,83.018 292.751,471.898 292.753,-485.006 290.566,-240.318 292.752,-1092.358 292.752,-441.311 292.751,-426.019 292.752,961.274 290.567,-1288.982 292.752,-714.401 292.751,-198.809 292.752,2490.574 290.567,500.299 292.751,2872.899 292.752,-2171.606 292.751,2252.44 292.753,-216.287 290.566,683.816 292.751,-710.033 292.753,2643.504 292.751,-2156.312 292.752,2564.853 290.567,-91.757 292.751,-3137.249 292.752,3748.969 292.751,552.732 292.752,122.344 290.567,7541.631 292.751,-3521.757 292.753,-5900.912 292.751,-517.778 290.567,3987.103 292.752,489.376 292.751,653.23 292.752,902.287 292.751,810.528 290.568,-642.306"
     id="path106"
     style="fill:none;fill-opacity:1;stroke:#0098ff;stroke-width:287.56;stroke-linecap:round;stroke-linejoin:round;stroke-miterlimit:4;stroke-dasharray:none;stroke-opacity:1"
     inkscape:connector-curvature="0" /><text
     class="TextShape"
     id="text586"
     style="font-size:26.2165px;fill:#000000;fill-opacity:1;stroke-width:61.657"
     y="-79.890251"
     x="6969.6509"><tspan
       class="TextParagraph"
       font-size="353px"
       font-weight="400"
       id="tspan584"
       style="font-weight:400;font-size:771.204px;font-family:'Liberation Sans', sans-serif;fill:#000000;fill-opacity:1;stroke-width:61.657"><tspan
         class="TextPosition"
         x="12368.079"
         y="34842.754"
         id="tspan582"
         style="fill:#000000;fill-opacity:1;stroke-width:61.657"><tspan
           id="tspan580"
           style="fill:#000000;fill-opacity:1;stroke:none;stroke-width:61.657">1880</tspan></tspan></tspan></text><text
     class="TextShape"
     id="text594"
     style="font-size:26.2165px;fill:#000000;fill-opacity:1;stroke-width:61.657"
     y="-79.890251"
     x="6969.6509"><tspan
       class="TextParagraph"
       font-size="353px"
       font-weight="400"
       id="tspan592"
       style="font-weight:400;font-size:771.204px;font-family:'Liberation Sans', sans-serif;fill:#000000;fill-opacity:1;stroke-width:61.657"><tspan
         class="TextPosition"
         x="18212.189"
         y="34842.754"
         id="tspan590"
         style="fill:#000000;fill-opacity:1;stroke-width:61.657"><tspan
           id="tspan588"
           style="fill:#000000;fill-opacity:1;stroke:none;stroke-width:61.657">1900</tspan></tspan></tspan></text><text
     class="TextShape"
     id="text602"
     style="font-size:26.2165px;fill:#000000;fill-opacity:1;stroke-width:61.657"
     y="-79.890251"
     x="6969.6509"><tspan
       class="TextParagraph"
       font-size="353px"
       font-weight="400"
       id="tspan600"
       style="font-weight:400;font-size:771.204px;font-family:'Liberation Sans', sans-serif;fill:#000000;fill-opacity:1;stroke-width:61.657"><tspan
         class="TextPosition"
         x="24058.482"
         y="34842.754"
         id="tspan598"
         style="fill:#000000;fill-opacity:1;stroke-width:61.657"><tspan
           id="tspan596"
           style="fill:#000000;fill-opacity:1;stroke:none;stroke-width:61.657">1920</tspan></tspan></tspan></text><text
     class="TextShape"
     id="text610"
     style="font-size:26.2165px;fill:#000000;fill-opacity:1;stroke-width:61.657"
     y="-79.890251"
     x="6969.6509"><tspan
       class="TextParagraph"
       font-size="353px"
       font-weight="400"
       id="tspan608"
       style="font-weight:400;font-size:771.204px;font-family:'Liberation Sans', sans-serif;fill:#000000;fill-opacity:1;stroke-width:61.657"><tspan
         class="TextPosition"
         x="29904.775"
         y="34842.754"
         id="tspan606"
         style="fill:#000000;fill-opacity:1;stroke-width:61.657"><tspan
           id="tspan604"
           style="fill:#000000;fill-opacity:1;stroke:none;stroke-width:61.657">1940</tspan></tspan></tspan></text><text
     class="TextShape"
     id="text618"
     style="font-size:26.2165px;fill:#000000;fill-opacity:1;stroke-width:61.657"
     y="-79.890251"
     x="6969.6509"><tspan
       class="TextParagraph"
       font-size="353px"
       font-weight="400"
       id="tspan616"
       style="font-weight:400;font-size:771.204px;font-family:'Liberation Sans', sans-serif;fill:#000000;fill-opacity:1;stroke-width:61.657"><tspan
         class="TextPosition"
         x="35751.07"
         y="34842.754"
         id="tspan614"
         style="fill:#000000;fill-opacity:1;stroke-width:61.657"><tspan
           id="tspan612"
           style="fill:#000000;fill-opacity:1;stroke:none;stroke-width:61.657">1960</tspan></tspan></tspan></text><text
     class="TextShape"
     id="text626"
     style="font-size:26.2165px;fill:#000000;fill-opacity:1;stroke-width:61.657"
     y="-79.890251"
     x="6969.6509"><tspan
       class="TextParagraph"
       font-size="353px"
       font-weight="400"
       id="tspan624"
       style="font-weight:400;font-size:771.204px;font-family:'Liberation Sans', sans-serif;fill:#000000;fill-opacity:1;stroke-width:61.657"><tspan
         class="TextPosition"
         x="41595.18"
         y="34842.754"
         id="tspan622"
         style="fill:#000000;fill-opacity:1;stroke-width:61.657"><tspan
           id="tspan620"
           style="fill:#000000;fill-opacity:1;stroke:none;stroke-width:61.657">1980</tspan></tspan></tspan></text><text
     class="TextShape"
     id="text634"
     style="font-size:26.2165px;fill:#000000;fill-opacity:1;stroke-width:61.657"
     y="-79.890251"
     x="6969.6509"><tspan
       class="TextParagraph"
       font-size="353px"
       font-weight="400"
       id="tspan632"
       style="font-weight:400;font-size:771.204px;font-family:'Liberation Sans', sans-serif;fill:#000000;fill-opacity:1;stroke-width:61.657"><tspan
         class="TextPosition"
         x="47441.473"
         y="34842.754"
         id="tspan630"
         style="fill:#000000;fill-opacity:1;stroke-width:61.657"><tspan
           id="tspan628"
           style="fill:#000000;fill-opacity:1;stroke:none;stroke-width:61.657">2000</tspan></tspan></tspan></text><text
     class="TextShape"
     id="text642"
     style="font-size:26.2165px;fill:#000000;fill-opacity:1;stroke-width:61.657"
     y="-79.890251"
     x="6969.6509"><tspan
       class="TextParagraph"
       font-size="353px"
       font-weight="400"
       id="tspan640"
       style="font-weight:400;font-size:771.204px;font-family:'Liberation Sans', sans-serif;fill:#000000;fill-opacity:1;stroke-width:61.657"><tspan
         class="TextPosition"
         x="53287.766"
         y="34842.754"
         id="tspan638"
         style="fill:#000000;fill-opacity:1;stroke-width:61.657"><tspan
           id="tspan636"
           style="fill:#000000;fill-opacity:1;stroke:none;stroke-width:61.657">2020</tspan></tspan></tspan></text><text
     class="TextShape"
     id="text650"
     style="font-size:26.2165px;fill:#000000;fill-opacity:1;stroke-width:61.657"
     y="-79.890251"
     x="6969.6509"><tspan
       class="TextParagraph"
       font-size="353px"
       font-weight="400"
       id="tspan648"
       style="font-weight:400;font-size:771.204px;font-family:'Liberation Sans', sans-serif;fill:#000000;fill-opacity:1;stroke-width:61.657"><tspan
         class="TextPosition"
         x="59134.059"
         y="34842.754"
         id="tspan646"
         style="fill:#000000;fill-opacity:1;stroke-width:61.657"><tspan
           id="tspan644"
           style="fill:#000000;fill-opacity:1;stroke:none;stroke-width:61.657">2040</tspan></tspan></tspan></text><text
     class="TextShape"
     id="text658"
     style="font-size:26.2165px;fill:#000000;fill-opacity:1;stroke-width:61.657"
     y="-79.890251"
     x="6861.8164"><tspan
       class="TextParagraph"
       font-size="353px"
       font-weight="400"
       id="tspan656"
       style="font-weight:400;font-size:771.204px;font-family:'Liberation Sans', sans-serif;fill:#000000;fill-opacity:1;stroke-width:61.657"><tspan
         class="TextPosition"
         x="12120.423"
         y="33866.184"
         id="tspan654"
         style="fill:#000000;fill-opacity:1;stroke-width:61.657"><tspan
           id="tspan652"
           style="fill:#000000;fill-opacity:1;stroke:none;stroke-width:61.657">0</tspan></tspan></tspan></text><text
     class="TextShape"
     id="text666"
     style="font-size:26.2165px;fill:#000000;fill-opacity:1;stroke-width:61.657"
     y="-79.890251"
     x="6861.8164"><tspan
       class="TextParagraph"
       font-size="353px"
       font-weight="400"
       id="tspan664"
       style="font-weight:400;font-size:771.204px;font-family:'Liberation Sans', sans-serif;fill:#000000;fill-opacity:1;stroke-width:61.657"><tspan
         class="TextPosition"
         x="10269.97"
         y="30811.957"
         id="tspan662"
         style="fill:#000000;fill-opacity:1;stroke-width:61.657"><tspan
           id="tspan660"
           style="fill:#000000;fill-opacity:1;stroke:none;stroke-width:61.657">0.0002</tspan></tspan></tspan></text><text
     class="TextShape"
     id="text674"
     style="font-size:26.2165px;fill:#000000;fill-opacity:1;stroke-width:61.657"
     y="-79.890251"
     x="6861.8164"><tspan
       class="TextParagraph"
       font-size="353px"
       font-weight="400"
       id="tspan672"
       style="font-weight:400;font-size:771.204px;font-family:'Liberation Sans', sans-serif;fill:#000000;fill-opacity:1;stroke-width:61.657"><tspan
         class="TextPosition"
         x="10269.97"
         y="27757.729"
         id="tspan670"
         style="fill:#000000;fill-opacity:1;stroke-width:61.657"><tspan
           id="tspan668"
           style="fill:#000000;fill-opacity:1;stroke:none;stroke-width:61.657">0.0004</tspan></tspan></tspan></text><text
     class="TextShape"
     id="text682"
     style="font-size:26.2165px;fill:#000000;fill-opacity:1;stroke-width:61.657"
     y="-79.890251"
     x="6861.8164"><tspan
       class="TextParagraph"
       font-size="353px"
       font-weight="400"
       id="tspan680"
       style="font-weight:400;font-size:771.204px;font-family:'Liberation Sans', sans-serif;fill:#000000;fill-opacity:1;stroke-width:61.657"><tspan
         class="TextPosition"
         x="10269.97"
         y="24703.502"
         id="tspan678"
         style="fill:#000000;fill-opacity:1;stroke-width:61.657"><tspan
           id="tspan676"
           style="fill:#000000;fill-opacity:1;stroke:none;stroke-width:61.657">0.0006</tspan></tspan></tspan></text><text
     class="TextShape"
     id="text690"
     style="font-size:26.2165px;fill:#000000;fill-opacity:1;stroke-width:61.657"
     y="-79.890251"
     x="6861.8164"><tspan
       class="TextParagraph"
       font-size="353px"
       font-weight="400"
       id="tspan688"
       style="font-weight:400;font-size:771.204px;font-family:'Liberation Sans', sans-serif;fill:#000000;fill-opacity:1;stroke-width:61.657"><tspan
         class="TextPosition"
         x="10269.97"
         y="21649.273"
         id="tspan686"
         style="fill:#000000;fill-opacity:1;stroke-width:61.657"><tspan
           id="tspan684"
           style="fill:#000000;fill-opacity:1;stroke:none;stroke-width:61.657">0.0008</tspan></tspan></tspan></text><text
     class="TextShape"
     id="text698"
     style="font-size:26.2165px;fill:#000000;fill-opacity:1;stroke-width:61.657"
     y="-79.890251"
     x="6861.8164"><tspan
       class="TextParagraph"
       font-size="353px"
       font-weight="400"
       id="tspan696"
       style="font-weight:400;font-size:771.204px;font-family:'Liberation Sans', sans-serif;fill:#000000;fill-opacity:1;stroke-width:61.657"><tspan
         class="TextPosition"
         x="10674.142"
         y="18595.045"
         id="tspan694"
         style="fill:#000000;fill-opacity:1;stroke-width:61.657"><tspan
           id="tspan692"
           style="fill:#000000;fill-opacity:1;stroke:none;stroke-width:61.657">0.001</tspan></tspan></tspan></text><text
     class="TextShape"
     id="text706"
     style="font-size:26.2165px;fill:#000000;fill-opacity:1;stroke-width:61.657"
     y="-79.890251"
     x="6861.8164"><tspan
       class="TextParagraph"
       font-size="353px"
       font-weight="400"
       id="tspan704"
       style="font-weight:400;font-size:771.204px;font-family:'Liberation Sans', sans-serif;fill:#000000;fill-opacity:1;stroke-width:61.657"><tspan
         class="TextPosition"
         x="10269.97"
         y="15540.813"
         id="tspan702"
         style="fill:#000000;fill-opacity:1;stroke-width:61.657"><tspan
           id="tspan700"
           style="fill:#000000;fill-opacity:1;stroke:none;stroke-width:61.657">0.0012</tspan></tspan></tspan></text><text
     class="TextShape"
     id="text714"
     style="font-size:26.2165px;fill:#000000;fill-opacity:1;stroke-width:61.657"
     y="-79.890251"
     x="6861.8164"><tspan
       class="TextParagraph"
       font-size="353px"
       font-weight="400"
       id="tspan712"
       style="font-weight:400;font-size:771.204px;font-family:'Liberation Sans', sans-serif;fill:#000000;fill-opacity:1;stroke-width:61.657"><tspan
         class="TextPosition"
         x="10269.97"
         y="12486.582"
         id="tspan710"
         style="fill:#000000;fill-opacity:1;stroke-width:61.657"><tspan
           id="tspan708"
           style="fill:#000000;fill-opacity:1;stroke:none;stroke-width:61.657">0.0014</tspan></tspan></tspan></text><text
     class="TextShape"
     id="text722"
     style="font-size:26.2165px;fill:#000000;fill-opacity:1;stroke-width:61.657"
     y="-79.890251"
     x="6861.8164"><tspan
       class="TextParagraph"
       font-size="353px"
       font-weight="400"
       id="tspan720"
       style="font-weight:400;font-size:771.204px;font-family:'Liberation Sans', sans-serif;fill:#000000;fill-opacity:1;stroke-width:61.657"><tspan
         class="TextPosition"
         x="10269.97"
         y="9432.3525"
         id="tspan718"
         style="fill:#000000;fill-opacity:1;stroke-width:61.657"><tspan
           id="tspan716"
           style="fill:#000000;fill-opacity:1;stroke:none;stroke-width:61.657">0.0016</tspan></tspan></tspan></text><text
     class="TextShape"
     id="text730"
     style="font-size:26.2165px;fill:#000000;fill-opacity:1;stroke-width:61.657"
     y="-79.890251"
     x="6861.8164"><tspan
       class="TextParagraph"
       font-size="353px"
       font-weight="400"
       id="tspan728"
       style="font-weight:400;font-size:771.204px;font-family:'Liberation Sans', sans-serif;fill:#000000;fill-opacity:1;stroke-width:61.657"><tspan
         class="TextPosition"
         x="10269.97"
         y="6380.3081"
         id="tspan726"
         style="fill:#000000;fill-opacity:1;stroke-width:61.657"><tspan
           id="tspan724"
           style="fill:#000000;fill-opacity:1;stroke:none;stroke-width:61.657">0.0018</tspan></tspan></tspan></text><flowRoot
     transform="matrix(28.755968,0,0,28.755968,-1055.7655,-2835.533)"
     style="font-style:normal;font-variant:normal;font-weight:bold;font-stretch:normal;font-size:26.6667px;line-height:1.25;font-family:sans-serif;-inkscape-font-specification:'sans-serif Bold';letter-spacing:0px;word-spacing:0px;fill:#000000;fill-opacity:1;stroke:none"
     id="flowRoot1679"
     xml:space="preserve"><flowRegion
       id="flowRegion1681"
       style="fill:#000000;fill-opacity:1"><rect
         y="1326"
         x="1247"
         height="61.25"
         width="127.25"
         id="rect1683"
         style="fill:#000000;fill-opacity:1;" /></flowRegion><flowPara
       style="font-style:normal;font-variant:normal;font-weight:normal;font-stretch:normal;font-family:sans-serif;-inkscape-font-specification:sans-serif;fill:#000000;fill-opacity:1"
       id="flowPara1685">Year</flowPara></flowRoot><flowRoot
     xml:space="preserve"
     id="flowRoot1693"
     style="font-style:normal;font-variant:normal;font-weight:bold;font-stretch:normal;font-size:26.6667px;line-height:1.25;font-family:sans-serif;-inkscape-font-specification:'sans-serif Bold';letter-spacing:0px;word-spacing:0px;fill:#000000;fill-opacity:1;stroke:none"
     transform="matrix(0,-28.755968,28.755968,0,-29409.801,59804.439)"><flowRegion
       id="flowRegion1689"
       style="fill:#000000;fill-opacity:1"><rect
         id="rect1687"
         width="516.15875"
         height="136.91043"
         x="1247"
         y="1326"
         style="fill:#000000;fill-opacity:1" /></flowRegion><flowPara
       id="flowPara1691"
       style="font-style:normal;font-variant:normal;font-weight:normal;font-stretch:normal;font-family:sans-serif;-inkscape-font-specification:sans-serif;fill:#000000;fill-opacity:1">Literary output per citizen</flowPara></flowRoot><g
     id="g1669"
     transform="matrix(0.28129483,-1.0498066,1.0498066,0.28129483,-18371.926,28077.836)"
     style="fill:#00cbff;fill-opacity:1;stroke:#0098ff;stroke-opacity:1"><path
       style="fill:#00cbff;fill-opacity:1;stroke:#0098ff;stroke-width:264.583;stroke-linecap:round;stroke-linejoin:miter;stroke-miterlimit:4;stroke-dasharray:none;stroke-opacity:1"
       d="m 10952.421,21589.899 -357.795,95.871"
       id="path2068"
       inkscape:connector-curvature="0"
       inkscape:path-effect="#path-effect2070"
       inkscape:original-d="m 10952.421,21589.899 c -70.249,18.851 -287.482,77.058 -357.795,95.871"
       sodipodi:nodetypes="cc"
       transform="translate(-1003.1014,1918.6431)" /></g><flowRoot
     transform="matrix(28.755968,0,0,28.755968,-70.551128,-1603.6499)"
     style="font-style:normal;font-variant:normal;font-weight:bold;font-stretch:normal;font-size:26.6667px;line-height:1.25;font-family:sans-serif;-inkscape-font-specification:'sans-serif Bold';letter-spacing:0px;word-spacing:0px;fill:#020202;fill-opacity:1;stroke:none;stroke-width:28.222;stroke-linejoin:round"
     id="flowRoot1679-5"
     xml:space="preserve"><flowRegion
       id="flowRegion1681-3"
       style="fill:#020202;fill-opacity:1"><rect
         y="1326"
         x="1247"
         height="48.957108"
         width="872.09064"
         id="rect1683-5"
         style="fill:#020202;fill-opacity:1" /></flowRegion><flowPara
       style="font-style:normal;font-variant:normal;font-weight:normal;font-stretch:normal;font-family:sans-serif;-inkscape-font-specification:sans-serif;fill:#020202;fill-opacity:1"
       id="flowPara1685-6"><flowSpan
   style="font-style:normal;font-variant:normal;font-weight:bold;font-stretch:normal;font-family:sans-serif;-inkscape-font-specification:'sans-serif Bold';fill:#020202;fill-opacity:1"
   id="flowSpan2120">Data Source</flowSpan>: United States Copyright Office &amp; Census Bureau</flowPara><flowPara
       style="font-style:normal;font-variant:normal;font-weight:normal;font-stretch:normal;font-family:sans-serif;-inkscape-font-specification:sans-serif;fill:#020202;fill-opacity:1"
       id="flowPara2102" /></flowRoot><path
     style="fill:none;stroke:#ff0000;stroke-width:287.621;stroke-linecap:butt;stroke-linejoin:miter;stroke-miterlimit:4;stroke-dasharray:none;stroke-opacity:1"
     d="M 21756.26,33529.951 V 6190.0322"
     id="path1224"
     inkscape:connector-curvature="0" /><path
     inkscape:connector-curvature="0"
     id="path1250"
     d="M 40948.654,33529.951 V 6190.0322"
     style="fill:none;stroke:#ff0000;stroke-width:287.621;stroke-linecap:butt;stroke-linejoin:miter;stroke-miterlimit:4;stroke-dasharray:none;stroke-opacity:1" /><path
     style="fill:none;stroke:#ff0000;stroke-width:287.621;stroke-linecap:butt;stroke-linejoin:miter;stroke-miterlimit:4;stroke-dasharray:none;stroke-opacity:1"
     d="M 47821.391,33529.951 V 6190.0322"
     id="path1261"
     inkscape:connector-curvature="0" /></g></svg>
