<?xml version="1.0" encoding="UTF-8" standalone="no"?>
<svg
   xmlns:dc="http://purl.org/dc/elements/1.1/"
   xmlns:cc="http://creativecommons.org/ns#"
   xmlns:rdf="http://www.w3.org/1999/02/22-rdf-syntax-ns#"
   xmlns:svg="http://www.w3.org/2000/svg"
   xmlns="http://www.w3.org/2000/svg"
   xmlns:sodipodi="http://sodipodi.sourceforge.net/DTD/sodipodi-0.dtd"
   xmlns:inkscape="http://www.inkscape.org/namespaces/inkscape"
   width="2560"
   height="1440"
   viewBox="0 0 677.33332 381.00001"
   version="1.1"
   id="svg8"
   inkscape:version="1.0.2 (1.0.2+r75+1)"
   sodipodi:docname="Price Quantity Dark.svg"
   inkscape:export-filename="/home/anonymous/Documents/CopyCat/IntellectualPropertyArticle/sources/PriceQuantity.png"
   inkscape:export-xdpi="96"
   inkscape:export-ydpi="96">
  <defs
     id="defs2" />
  <sodipodi:namedview
     id="base"
     pagecolor="#000000"
     bordercolor="#666666"
     borderopacity="1.0"
     inkscape:pageopacity="0"
     inkscape:pageshadow="2"
     inkscape:zoom="0.5"
     inkscape:cx="1645.8877"
     inkscape:cy="780.65649"
     inkscape:document-units="mm"
     inkscape:current-layer="g940"
     showgrid="false"
     units="px"
     inkscape:snap-bbox="true"
     inkscape:bbox-paths="true"
     inkscape:bbox-nodes="true"
     inkscape:snap-bbox-edge-midpoints="true"
     inkscape:snap-bbox-midpoints="true"
     inkscape:object-paths="true"
     inkscape:snap-intersection-paths="true"
     inkscape:snap-smooth-nodes="true"
     inkscape:snap-midpoints="true"
     inkscape:snap-object-midpoints="true"
     inkscape:snap-center="true"
     inkscape:snap-text-baseline="true"
     inkscape:window-width="1276"
     inkscape:window-height="1401"
     inkscape:window-x="1280"
     inkscape:window-y="18"
     inkscape:window-maximized="0"
     inkscape:snap-page="true"
     inkscape:snap-global="true"
     inkscape:document-rotation="0" />
  <metadata
     id="metadata5">
    <rdf:RDF>
      <cc:Work
         rdf:about="">
        <dc:format>image/svg+xml</dc:format>
        <dc:type
           rdf:resource="http://purl.org/dc/dcmitype/StillImage" />
        <dc:title />
      </cc:Work>
    </rdf:RDF>
  </metadata>
  <g
     inkscape:label="Layer 1"
     inkscape:groupmode="layer"
     id="layer1"
     transform="translate(0,84.000028)">
    <rect
       style="display:inline;opacity:1;fill:#ffffff;fill-opacity:1;stroke:none;stroke-width:7.62096;stroke-linecap:round;stroke-linejoin:round;stroke-miterlimit:4;stroke-dasharray:none;stroke-dashoffset:0;stroke-opacity:1;paint-order:markers stroke fill"
       id="rect1366"
       width="386.34042"
       height="381"
       x="145.49646"
       y="-84.000046"
       ry="13.229167" />
    <flowRoot
       xml:space="preserve"
       id="flowRoot846"
       style="font-style:normal;font-variant:normal;font-weight:bold;font-stretch:normal;font-size:40px;line-height:1.25;font-family:sans-serif;-inkscape-font-specification:'sans-serif Bold';letter-spacing:0px;word-spacing:0px;fill:#000000;fill-opacity:1;stroke:none"
       transform="matrix(0.26458333,0,0,0.26458333,0,-84.000028)"><flowRegion
         id="flowRegion848"><rect
           id="rect850"
           width="74.751289"
           height="95.964493"
           x="646.49762"
           y="174.27885" /></flowRegion><flowPara
         id="flowPara852"
         style="font-style:normal;font-variant:normal;font-weight:bold;font-stretch:normal;font-family:Kalapi;-inkscape-font-specification:'Kalapi Bold'" /></flowRoot>
    <g
       id="g940"
       transform="matrix(0.95351537,0,0,0.95351537,15.742794,25.471479)">
      <g
         id="g994"
         transform="matrix(1.1562316,0,0,1.1562316,-75.003147,-32.544598)">
        <path
           inkscape:connector-curvature="0"
           id="path821"
           d="m 214.54312,236.84724 c 94.07914,-2.6e-4 188.158,-2.6e-4 282.23661,0"
           style="fill:none;stroke:#000000;stroke-width:2.5;stroke-linecap:round;stroke-linejoin:miter;stroke-miterlimit:4;stroke-dasharray:none;stroke-opacity:1" />
        <path
           style="fill:none;stroke:#000000;stroke-width:2.5;stroke-linecap:round;stroke-linejoin:miter;stroke-miterlimit:4;stroke-dasharray:none;stroke-opacity:1"
           d="m 227.40012,249.70405 c -2.6e-4,-94.07914 -2.6e-4,-188.158005 0,-282.236617"
           id="path823"
           inkscape:connector-curvature="0" />
        <path
           sodipodi:nodetypes="cc"
           inkscape:connector-curvature="0"
           id="path827"
           d="M 239.72123,206.63994 485.67801,95.69815"
           style="fill:none;stroke:#00c1ff;stroke-width:2.5;stroke-linecap:round;stroke-linejoin:miter;stroke-miterlimit:4;stroke-dasharray:none;stroke-opacity:1" />
        <path
           style="fill:none;stroke:#ff0000;stroke-width:2.5;stroke-linecap:round;stroke-linejoin:miter;stroke-miterlimit:4;stroke-dasharray:none;stroke-opacity:1"
           d="M 239.36223,1.8877275 485.68053,206.63994"
           id="path829"
           inkscape:connector-curvature="0"
           sodipodi:nodetypes="cc" />
        <path
           sodipodi:nodetypes="cc"
           inkscape:connector-curvature="0"
           id="path831"
           d="m 295.43607,214.71204 c -2.6e-4,-94.07914 -2.6e-4,-146.463956 0,-240.542568"
           style="fill:none;stroke:#000000;stroke-width:2.5;stroke-linecap:round;stroke-linejoin:miter;stroke-miterlimit:4;stroke-dasharray:2.5, 10;stroke-dashoffset:0;stroke-opacity:1" />
        <path
           sodipodi:nodetypes="cccc"
           inkscape:connector-curvature="0"
           id="path841"
           d="m 229.89802,-32.532567 h -4.9958 l 2.4979,-5.111892 z"
           inkscape:transform-center-y="-0.72108152"
           inkscape:transform-center-x="-9.374501e-06"
           style="opacity:1;fill:#000000;fill-opacity:1;stroke:#000000;stroke-width:1.95904;stroke-linecap:round;stroke-linejoin:round;stroke-miterlimit:4;stroke-dasharray:none;stroke-dashoffset:0;stroke-opacity:1;paint-order:stroke fill markers" />
        <path
           style="opacity:1;fill:#000000;fill-opacity:1;stroke:#000000;stroke-width:1.95904;stroke-linecap:round;stroke-linejoin:round;stroke-miterlimit:4;stroke-dasharray:none;stroke-dashoffset:0;stroke-opacity:1;paint-order:stroke fill markers"
           inkscape:transform-center-x="-0.72107939"
           inkscape:transform-center-y="1.3497536e-05"
           d="m 496.21267,239.34512 v -4.99581 l 5.1119,2.4979 z"
           id="path844"
           inkscape:connector-curvature="0"
           sodipodi:nodetypes="cccc" />
        <flowRoot
           transform="matrix(0.26458333,0,0,0.26458333,43.62579,-94.669011)"
           style="font-style:normal;font-variant:normal;font-weight:bold;font-stretch:normal;font-size:40px;line-height:1.25;font-family:sans-serif;-inkscape-font-specification:'sans-serif Bold';letter-spacing:0px;word-spacing:0px;fill:#000000;fill-opacity:1;stroke:none"
           id="flowRoot854"
           xml:space="preserve"><flowRegion
             id="flowRegion856"><rect
               y="205.59358"
               x="637.40625"
               height="106.06602"
               width="70.710678"
               id="rect858" /></flowRegion><flowPara
             id="flowPara860">P</flowPara></flowRoot>
        <flowRoot
           xml:space="preserve"
           id="flowRoot868"
           style="font-style:normal;font-variant:normal;font-weight:bold;font-stretch:normal;font-size:40px;line-height:1.25;font-family:sans-serif;-inkscape-font-specification:'sans-serif Bold';letter-spacing:0px;word-spacing:0px;fill:#000000;fill-opacity:1;stroke:none"
           transform="matrix(0.26458333,0,0,0.26458333,325.19229,188.18929)"><flowRegion
             id="flowRegion864"><rect
               id="rect862"
               width="70.710678"
               height="106.06602"
               x="637.40625"
               y="205.59358" /></flowRegion><flowPara
             id="flowPara866">Q</flowPara><flowPara
             id="flowPara870" /></flowRoot>
        <flowRoot
           transform="matrix(0.26458333,0,0,0.26458333,46.78899,-83.331854)"
           style="font-style:normal;font-variant:normal;font-weight:bold;font-stretch:normal;font-size:40px;line-height:1.25;font-family:sans-serif;-inkscape-font-specification:'sans-serif Bold';letter-spacing:0px;word-spacing:0px;fill:#000000;fill-opacity:1;stroke:none"
           id="flowRoot872"
           xml:space="preserve"><flowRegion
             id="flowRegion874"><rect
               y="211.14943"
               x="956.61444"
               height="86.368042"
               width="315.1676"
               id="rect876" /></flowRegion><flowPara
             id="flowPara878">Capacity</flowPara></flowRoot>
        <flowRoot
           xml:space="preserve"
           id="flowRoot886"
           style="font-style:normal;font-variant:normal;font-weight:bold;font-stretch:normal;font-size:40px;line-height:1.25;font-family:sans-serif;-inkscape-font-specification:'sans-serif Bold';letter-spacing:0px;word-spacing:0px;fill:#000000;fill-opacity:1;stroke:none"
           transform="matrix(0.20275223,0.16998786,-0.16998786,0.20275223,89.895247,-211.97342)"><flowRegion
             id="flowRegion882"><rect
               id="rect880"
               width="315.1676"
               height="86.368042"
               x="956.61444"
               y="211.14943" /></flowRegion><flowPara
             id="flowPara884">Demand</flowPara></flowRoot>
        <flowRoot
           transform="matrix(0.24086732,-0.10948639,0.10948639,0.24086732,191.54608,153.01465)"
           style="font-style:normal;font-variant:normal;font-weight:bold;font-stretch:normal;font-size:40px;line-height:1.25;font-family:sans-serif;-inkscape-font-specification:'sans-serif Bold';letter-spacing:0px;word-spacing:0px;fill:#000000;fill-opacity:1;stroke:none"
           id="flowRoot894"
           xml:space="preserve"><flowRegion
             id="flowRegion890"><rect
               y="211.14943"
               x="956.61444"
               height="86.368042"
               width="315.1676"
               id="rect888" /></flowRegion><flowPara
             id="flowPara892">Supply</flowPara></flowRoot>
        <path
           style="fill:none;stroke:#000000;stroke-width:2.5;stroke-linecap:round;stroke-linejoin:miter;stroke-miterlimit:4;stroke-dasharray:none;stroke-opacity:1"
           d="m 214.54312,236.84724 c 94.07914,-2.6e-4 188.158,-2.6e-4 282.23661,0"
           id="path954"
           inkscape:connector-curvature="0" />
        <path
           sodipodi:nodetypes="cc"
           inkscape:connector-curvature="0"
           id="path956"
           d="m 273.07328,179.5209 c -5.6e-4,-43.66014 -5.6e-4,-85.245586 0,-128.905477"
           style="fill:none;stroke:#000000;stroke-width:2.50999;stroke-linecap:round;stroke-linejoin:miter;stroke-miterlimit:4;stroke-dasharray:none;stroke-opacity:1" />
        <path
           sodipodi:nodetypes="cc"
           inkscape:connector-curvature="0"
           id="path958"
           d="m 267.72901,50.592677 h 10.68854"
           style="fill:none;stroke:#000000;stroke-width:2.5;stroke-linecap:round;stroke-linejoin:miter;stroke-miterlimit:4;stroke-dasharray:none;stroke-opacity:1" />
        <path
           style="fill:none;stroke:#000000;stroke-width:2.5;stroke-linecap:round;stroke-linejoin:miter;stroke-miterlimit:4;stroke-dasharray:none;stroke-opacity:1"
           d="m 267.72901,179.54365 h 10.68854"
           id="path962"
           inkscape:connector-curvature="0"
           sodipodi:nodetypes="cc" />
        <flowRoot
           xml:space="preserve"
           id="flowRoot970"
           style="font-style:normal;font-variant:normal;font-weight:bold;font-stretch:normal;font-size:40px;line-height:1.25;font-family:sans-serif;-inkscape-font-specification:'sans-serif Bold';letter-spacing:0px;word-spacing:0px;fill:#000000;fill-opacity:1;stroke:none"
           transform="matrix(0,-0.26458333,0.26458333,0,204.91601,382.49731)"><flowRegion
             id="flowRegion966"><rect
               id="rect964"
               width="315.1676"
               height="86.368042"
               x="956.61444"
               y="211.14943" /></flowRegion><flowPara
             id="flowPara968">Profit</flowPara></flowRoot>
        <path
           sodipodi:nodetypes="cccc"
           inkscape:connector-curvature="0"
           id="path866"
           d="m 293.95225,-32.370045 v -4.99581 l 5.1119,2.4979 z"
           inkscape:transform-center-y="1.3497536e-05"
           inkscape:transform-center-x="-0.72107939"
           style="opacity:1;fill:#000000;fill-opacity:1;stroke:#000000;stroke-width:1.95904;stroke-linecap:round;stroke-linejoin:round;stroke-miterlimit:4;stroke-dasharray:none;stroke-dashoffset:0;stroke-opacity:1;paint-order:stroke fill markers" />
        <g
           transform="translate(14.03165)"
           style="opacity:0.5"
           id="g904">
          <path
             sodipodi:nodetypes="cc"
             inkscape:connector-curvature="0"
             id="path898"
             d="m 366.52976,214.71204 c -2.6e-4,-94.07914 -2.6e-4,-146.463956 0,-240.542568"
             style="fill:none;stroke:#000000;stroke-width:2.5;stroke-linecap:round;stroke-linejoin:miter;stroke-miterlimit:4;stroke-dasharray:2.5, 10;stroke-dashoffset:0;stroke-opacity:1" />
          <path
             sodipodi:nodetypes="cccc"
             inkscape:connector-curvature="0"
             id="path900"
             d="m 365.04594,-32.370045 v -4.99581 l 5.1119,2.4979 z"
             inkscape:transform-center-y="1.3497536e-05"
             inkscape:transform-center-x="-0.72107939"
             style="opacity:1;fill:#000000;fill-opacity:1;stroke:#000000;stroke-width:1.95904;stroke-linecap:round;stroke-linejoin:round;stroke-miterlimit:4;stroke-dasharray:none;stroke-dashoffset:0;stroke-opacity:1;paint-order:stroke fill markers" />
        </g>
        <flowRoot
           transform="matrix(0.26458333,0,0,0.26458333,9.8398509,-107.39789)"
           style="font-style:normal;font-variant:normal;font-weight:bold;font-stretch:normal;font-size:40px;line-height:1.25;font-family:sans-serif;-inkscape-font-specification:'sans-serif Bold';letter-spacing:0px;word-spacing:0px;fill:#000000;fill-opacity:1;stroke:none"
           id="flowRoot872-3"
           xml:space="preserve"><flowRegion
             id="flowRegion874-6"><rect
               y="211.14943"
               x="956.61444"
               height="86.368042"
               width="315.1676"
               id="rect876-7" /></flowRegion><flowPara
             id="flowPara878-5">Situation A</flowPara></flowRoot>
        <flowRoot
           xml:space="preserve"
           id="flowRoot944"
           style="font-style:normal;font-variant:normal;font-weight:bold;font-stretch:normal;font-size:40px;line-height:1.25;font-family:sans-serif;-inkscape-font-specification:'sans-serif Bold';letter-spacing:0px;word-spacing:0px;fill:#000000;fill-opacity:1;stroke:none"
           transform="matrix(0.26458333,0,0,0.26458333,94.965191,-107.39789)"><flowRegion
             id="flowRegion940"><rect
               id="rect938"
               width="315.1676"
               height="86.368042"
               x="956.61444"
               y="211.14943" /></flowRegion><flowPara
             id="flowPara942">Situation B</flowPara></flowRoot>
      </g>
    </g>
  </g>
</svg>
